# MagicaVoxel @ Ephtracy

# material
mtllib BATULA.mtl
usemtl palette

# normals
vn -1 0 0
vn 1 0 0
vn 0 0 1
vn 0 0 -1
vn 0 -1 0
vn 0 1 0

# texcoords
vt 0.548828 0.5
vt 0.560547 0.5
vt 0.693359 0.5
vt 0.697266 0.5
vt 0.841797 0.5
vt 0.958984 0.5

# verts
v -15 18 -0
v -15 18 -2
v -15 22 1
v -15 22 -0
v -15 22 -1
v -15 22 -2
v -15 23 1
v -15 23 -1
v -14 23 1
v -14 23 -1
v -14 24 1
v -14 24 -0
v -14 24 -1
v -14 26 2
v -14 26 1
v -14 27 2
v -14 27 -0
v -13 19 -2
v -13 19 -3
v -13 21 -2
v -13 21 -3
v -13 22 -1
v -13 22 -2
v -13 23 -1
v -13 23 -2
v -12 24 2
v -12 24 1
v -12 25 2
v -12 25 1
v -12 26 2
v -12 26 1
v -12 26 -0
v -12 27 2
v -12 27 -0
v -11 18 -2
v -11 18 -3
v -11 19 -2
v -11 19 -3
v -10 14 -4
v -10 14 -5
v -10 15 -3
v -10 15 -4
v -10 16 -4
v -10 16 -5
v -10 17 -2
v -10 17 -3
v -10 18 -2
v -10 18 -3
v -10 18 -4
v -9 18 -3
v -9 18 -4
v -9 20 -3
v -9 20 -4
v -9 21 -2
v -9 21 -3
v -9 22 -2
v -9 22 -3
v -7 16 -2
v -7 16 -3
v -7 17 -2
v -7 17 -3
v -7 18 -3
v -7 18 -4
v -7 20 -3
v -7 20 -4
v -5 9 3
v -5 9 2
v -5 10 2
v -5 10 -1
v -5 11 3
v -5 11 1
v -5 12 1
v -5 12 -0
v -5 13 -0
v -5 13 -1
v -5 18 -3
v -5 18 -4
v -5 20 -3
v -5 20 -4
v -5 25 -0
v -5 25 -1
v -5 28 -0
v -5 28 -1
v -4 11 -1
v -4 11 -2
v -4 12 1
v -4 12 -0
v -4 13 1
v -4 13 -0
v -4 13 -1
v -4 13 -2
v -4 16 -1
v -4 16 -3
v -4 17 -2
v -4 17 -3
v -4 18 -0
v -4 18 -1
v -4 18 -2
v -4 20 -0
v -4 20 -1
v -4 20 -2
v -4 24 -0
v -4 24 -1
v -4 25 -0
v -4 25 -1
v -4 25 -2
v -4 27 1
v -4 27 -0
v -4 27 -1
v -4 27 -2
v -4 28 1
v -4 28 -0
v -3 9 -3
v -3 9 -4
v -3 10 -1
v -3 10 -3
v -3 11 -1
v -3 11 -2
v -3 11 -3
v -3 11 -4
v -3 12 -2
v -3 12 -3
v -3 13 1
v -3 13 -2
v -3 14 2
v -3 14 1
v -3 14 -2
v -3 14 -3
v -3 15 3
v -3 15 2
v -3 15 -3
v -3 15 -4
v -3 16 -1
v -3 16 -3
v -3 18 3
v -3 18 2
v -3 18 -0
v -3 18 -1
v -3 18 -3
v -3 18 -4
v -3 19 2
v -3 19 1
v -3 20 3
v -3 20 1
v -3 20 -0
v -3 20 -1
v -3 24 3
v -3 24 -0
v -3 24 -1
v -3 24 -2
v -3 25 -1
v -3 25 -2
v -3 26 1
v -3 26 -1
v -3 27 1
v -3 27 -1
v -2 9 5
v -2 9 4
v -2 10 4
v -2 10 3
v -2 10 1
v -2 10 -0
v -2 11 5
v -2 11 4
v -2 11 3
v -2 11 2
v -2 11 1
v -2 11 -0
v -2 12 4
v -2 12 3
v -2 12 2
v -2 12 1
v -2 13 3
v -2 13 2
v -2 13 1
v -2 13 -2
v -2 13 -3
v -2 14 3
v -2 14 2
v -2 14 1
v -2 14 -2
v -2 14 -3
v -2 14 -4
v -2 15 3
v -2 15 2
v -2 15 -3
v -2 15 -4
v -2 18 4
v -2 18 3
v -2 19 3
v -2 19 2
v -2 19 1
v -2 20 3
v -2 20 1
v -2 21 4
v -2 21 3
v -2 24 2
v -2 24 1
v -2 24 -1
v -2 25 2
v -2 25 1
v -2 25 -1
v -2 26 1
v -2 26 -1
v -1 17 -3
v -1 17 -4
v -1 18 -2
v -1 18 -3
v -1 19 -1
v -1 19 -2
v -1 21 4
v -1 21 3
v -1 21 -3
v -1 21 -4
v -1 22 4
v -1 22 3
v -1 22 -1
v -1 22 -2
v -1 22 -3
v -1 24 -1
v -1 24 -2
v 1 9 5
v 1 9 4
v 1 10 4
v 1 10 3
v 1 10 1
v 1 10 -0
v 1 11 5
v 1 11 4
v 1 11 3
v 1 11 2
v 1 11 1
v 1 11 -0
v 1 12 4
v 1 12 3
v 1 12 2
v 1 12 1
v 1 13 3
v 1 13 2
v 1 13 1
v 1 18 4
v 1 18 3
v 1 19 3
v 1 20 4
v 1 20 3
v 1 23 3
v 1 23 2
v 1 23 1
v 1 24 3
v 1 24 2
v 1 24 1
v 1 25 2
v 1 25 1
v 1 25 -2
v 1 26 1
v 1 26 -2
v 2 9 -3
v 2 9 -4
v 2 10 -0
v 2 10 -3
v 2 11 -0
v 2 11 -2
v 2 11 -3
v 2 11 -4
v 2 12 -2
v 2 12 -3
v 2 17 3
v 2 17 2
v 2 17 -3
v 2 17 -4
v 2 18 3
v 2 18 2
v 2 18 1
v 2 18 -2
v 2 18 -3
v 2 18 -4
v 2 19 2
v 2 19 1
v 2 19 -1
v 2 19 -2
v 2 20 -1
v 2 20 -3
v 2 26 1
v 2 26 -2
v 2 27 1
v 2 27 -2
v 3 24 -0
v 3 24 -1
v 3 25 -0
v 3 25 -1
v 3 27 1
v 3 27 -1
v 3 28 1
v 3 28 -1
v 4 9 3
v 4 9 2
v 4 10 2
v 4 10 -0
v 4 11 3
v 4 11 1
v 4 11 -0
v 4 18 -3
v 4 18 -4
v 4 20 -1
v 4 20 -2
v 4 20 -3
v 4 20 -4
v 4 21 -1
v 4 21 -2
v 4 21 -3
v 4 25 -0
v 4 25 -1
v 4 27 -0
v 4 27 -1
v 5 21 -1
v 5 21 -2
v 5 22 -0
v 5 22 -1
v 5 22 -2
v 5 23 -0
v 5 23 -1
v 6 16 -2
v 6 16 -3
v 6 17 -2
v 6 17 -3
v 6 18 -3
v 6 18 -4
v 6 20 -3
v 6 20 -4
v 6 21 -2
v 6 21 -3
v 6 22 -1
v 6 22 -2
v 6 22 -3
v 6 23 1
v 6 23 -0
v 6 23 -1
v 6 23 -2
v 6 24 1
v 6 24 -1
v 7 16 -3
v 7 16 -4
v 7 17 -3
v 7 17 -4
v 7 24 2
v 7 24 1
v 7 24 -0
v 7 25 2
v 7 25 -0
v 8 15 -3
v 8 15 -4
v 8 16 -3
v 8 16 -4
v 8 17 -3
v 8 17 -4
v 8 20 -3
v 8 20 -4
v 9 14 -4
v 9 14 -5
v 9 15 -4
v 9 16 -4
v 9 16 -5
v 9 19 -1
v 9 19 -2
v 9 20 -1
v 9 20 -2
v 10 21 -0
v 10 21 -1
v 10 22 -0
v 10 22 -1
v 11 25 1
v 11 25 -0
v 11 26 2
v 11 26 1
v 11 27 2
v 11 27 -0
v 13 22 1
v 13 22 -0
v 13 23 1
v 13 23 -0
v 13 26 2
v 13 26 1
v 13 26 -0
v 13 27 2
v 13 27 -0
v 14 18 -0
v 14 18 -2
v 14 19 -1
v 14 19 -2
v 14 21 -0
v 14 21 -1
v -14 18 -0
v -14 18 -2
v -14 19 -1
v -14 19 -2
v -14 21 -0
v -14 21 -1
v -13 22 1
v -13 22 -0
v -13 23 1
v -13 23 -0
v -13 26 2
v -13 26 1
v -13 26 -0
v -13 27 2
v -13 27 -0
v -11 25 1
v -11 25 -0
v -11 26 2
v -11 26 1
v -11 27 2
v -11 27 -0
v -10 21 -0
v -10 21 -1
v -10 22 -0
v -10 22 -1
v -9 14 -4
v -9 14 -5
v -9 15 -4
v -9 16 -4
v -9 16 -5
v -9 19 -1
v -9 19 -2
v -9 20 -1
v -9 20 -2
v -8 15 -3
v -8 15 -4
v -8 16 -3
v -8 16 -4
v -8 17 -3
v -8 17 -4
v -8 20 -3
v -8 20 -4
v -7 16 -3
v -7 16 -4
v -7 17 -3
v -7 17 -4
v -7 24 2
v -7 24 1
v -7 24 -0
v -7 25 2
v -7 25 -0
v -6 16 -2
v -6 16 -3
v -6 17 -2
v -6 17 -3
v -6 18 -3
v -6 18 -4
v -6 20 -3
v -6 20 -4
v -6 21 -2
v -6 21 -3
v -6 22 -1
v -6 22 -2
v -6 22 -3
v -6 23 1
v -6 23 -0
v -6 23 -1
v -6 23 -2
v -6 24 1
v -6 24 -1
v -5 21 -1
v -5 21 -2
v -5 22 -0
v -5 22 -1
v -5 22 -2
v -5 23 -0
v -5 23 -1
v -4 9 3
v -4 9 2
v -4 10 2
v -4 10 -0
v -4 11 3
v -4 11 1
v -4 11 -0
v -4 18 -3
v -4 18 -4
v -4 20 -1
v -4 20 -2
v -4 20 -3
v -4 20 -4
v -4 21 -1
v -4 21 -2
v -4 21 -3
v -4 25 -0
v -4 25 -1
v -4 27 -0
v -4 27 -1
v -3 24 -0
v -3 24 -1
v -3 25 -0
v -3 25 -1
v -3 27 1
v -3 27 -1
v -3 28 1
v -3 28 -1
v -2 9 -3
v -2 9 -4
v -2 10 -0
v -2 10 -3
v -2 11 -0
v -2 11 -2
v -2 11 -3
v -2 11 -4
v -2 12 -2
v -2 12 -3
v -2 17 3
v -2 17 2
v -2 17 -3
v -2 17 -4
v -2 18 3
v -2 18 2
v -2 18 1
v -2 18 -2
v -2 18 -3
v -2 18 -4
v -2 19 2
v -2 19 1
v -2 19 -1
v -2 19 -2
v -2 20 -1
v -2 20 -3
v -2 26 1
v -2 26 -2
v -2 27 1
v -2 27 -2
v -1 9 5
v -1 9 4
v -1 10 4
v -1 10 3
v -1 10 1
v -1 10 -0
v -1 11 5
v -1 11 4
v -1 11 3
v -1 11 2
v -1 11 1
v -1 11 -0
v -1 12 4
v -1 12 3
v -1 12 2
v -1 12 1
v -1 13 3
v -1 13 2
v -1 13 1
v -1 18 4
v -1 18 3
v -1 19 3
v -1 20 4
v -1 20 3
v -1 23 3
v -1 23 2
v -1 23 1
v -1 24 3
v -1 24 2
v -1 24 1
v -1 25 2
v -1 25 1
v -1 25 -2
v -1 26 1
v -1 26 -2
v 1 17 -3
v 1 17 -4
v 1 18 -2
v 1 18 -3
v 1 19 -1
v 1 19 -2
v 1 21 4
v 1 21 3
v 1 21 -3
v 1 21 -4
v 1 22 4
v 1 22 3
v 1 22 -1
v 1 22 -2
v 1 22 -3
v 1 24 -1
v 1 24 -2
v 2 9 5
v 2 9 4
v 2 10 4
v 2 10 3
v 2 10 1
v 2 10 -0
v 2 11 5
v 2 11 4
v 2 11 3
v 2 11 2
v 2 11 1
v 2 11 -0
v 2 12 4
v 2 12 3
v 2 12 2
v 2 12 1
v 2 13 3
v 2 13 2
v 2 13 1
v 2 13 -2
v 2 13 -3
v 2 14 3
v 2 14 2
v 2 14 1
v 2 14 -2
v 2 14 -3
v 2 14 -4
v 2 15 3
v 2 15 2
v 2 15 -3
v 2 15 -4
v 2 18 4
v 2 18 3
v 2 19 3
v 2 19 2
v 2 19 1
v 2 20 3
v 2 20 1
v 2 21 4
v 2 21 3
v 2 24 2
v 2 24 1
v 2 24 -1
v 2 25 2
v 2 25 1
v 2 25 -1
v 2 26 1
v 2 26 -1
v 3 9 -3
v 3 9 -4
v 3 10 -1
v 3 10 -3
v 3 11 -1
v 3 11 -2
v 3 11 -3
v 3 11 -4
v 3 12 -2
v 3 12 -3
v 3 13 1
v 3 13 -2
v 3 14 2
v 3 14 1
v 3 14 -2
v 3 14 -3
v 3 15 3
v 3 15 2
v 3 15 -3
v 3 15 -4
v 3 16 -1
v 3 16 -3
v 3 18 3
v 3 18 2
v 3 18 -0
v 3 18 -1
v 3 18 -3
v 3 18 -4
v 3 19 2
v 3 19 1
v 3 20 3
v 3 20 1
v 3 20 -0
v 3 20 -1
v 3 24 3
v 3 24 -0
v 3 24 -1
v 3 24 -2
v 3 25 -1
v 3 25 -2
v 3 26 1
v 3 26 -1
v 3 27 1
v 3 27 -1
v 4 11 -1
v 4 11 -2
v 4 12 1
v 4 12 -0
v 4 13 1
v 4 13 -0
v 4 13 -1
v 4 13 -2
v 4 16 -1
v 4 16 -3
v 4 17 -2
v 4 17 -3
v 4 18 -0
v 4 18 -1
v 4 18 -2
v 4 20 -0
v 4 20 -1
v 4 20 -2
v 4 24 -0
v 4 24 -1
v 4 25 -0
v 4 25 -1
v 4 25 -2
v 4 27 1
v 4 27 -0
v 4 27 -1
v 4 27 -2
v 4 28 1
v 4 28 -0
v 5 9 3
v 5 9 2
v 5 10 2
v 5 10 -1
v 5 11 3
v 5 11 1
v 5 12 1
v 5 12 -0
v 5 13 -0
v 5 13 -1
v 5 18 -3
v 5 18 -4
v 5 20 -3
v 5 20 -4
v 5 25 -0
v 5 25 -1
v 5 28 -0
v 5 28 -1
v 7 16 -2
v 7 16 -3
v 7 17 -2
v 7 17 -3
v 7 18 -3
v 7 18 -4
v 7 20 -3
v 7 20 -4
v 9 18 -3
v 9 18 -4
v 9 20 -3
v 9 20 -4
v 9 21 -2
v 9 21 -3
v 9 22 -2
v 9 22 -3
v 10 14 -4
v 10 14 -5
v 10 15 -3
v 10 15 -4
v 10 16 -4
v 10 16 -5
v 10 17 -2
v 10 17 -3
v 10 18 -2
v 10 18 -3
v 10 18 -4
v 11 18 -2
v 11 18 -3
v 11 19 -2
v 11 19 -3
v 12 24 2
v 12 24 1
v 12 25 2
v 12 25 1
v 12 26 2
v 12 26 1
v 12 26 -0
v 12 27 2
v 12 27 -0
v 13 19 -2
v 13 19 -3
v 13 21 -2
v 13 21 -3
v 13 22 -1
v 13 22 -2
v 13 23 -1
v 13 23 -2
v 14 23 1
v 14 23 -1
v 14 24 1
v 14 24 -0
v 14 24 -1
v 14 26 2
v 14 26 1
v 14 27 2
v 14 27 -0
v 15 18 -0
v 15 18 -2
v 15 22 1
v 15 22 -0
v 15 22 -1
v 15 22 -2
v 15 23 1
v 15 23 -1
v -2 9 5
v -2 11 5
v -1 9 5
v -1 11 5
v 1 9 5
v 1 11 5
v 2 9 5
v 2 11 5
v -2 11 4
v -2 12 4
v -2 18 4
v -2 21 4
v -1 11 4
v -1 12 4
v -1 18 4
v -1 20 4
v -1 21 4
v -1 22 4
v 1 11 4
v 1 12 4
v 1 18 4
v 1 20 4
v 1 21 4
v 1 22 4
v 2 11 4
v 2 12 4
v 2 18 4
v 2 21 4
v -5 9 3
v -5 11 3
v -4 9 3
v -4 11 3
v -3 15 3
v -3 18 3
v -3 20 3
v -3 24 3
v -2 12 3
v -2 13 3
v -2 14 3
v -2 15 3
v -2 17 3
v -2 18 3
v -2 20 3
v -2 21 3
v -2 22 3
v -2 24 3
v -1 12 3
v -1 13 3
v -1 14 3
v -1 17 3
v -1 19 3
v -1 20 3
v -1 21 3
v -1 22 3
v -1 23 3
v -1 24 3
v 1 12 3
v 1 13 3
v 1 14 3
v 1 17 3
v 1 19 3
v 1 20 3
v 1 21 3
v 1 22 3
v 1 23 3
v 1 24 3
v 2 12 3
v 2 13 3
v 2 14 3
v 2 15 3
v 2 17 3
v 2 18 3
v 2 20 3
v 2 21 3
v 2 22 3
v 2 24 3
v 3 15 3
v 3 18 3
v 3 20 3
v 3 24 3
v 4 9 3
v 4 11 3
v 5 9 3
v 5 11 3
v -14 26 2
v -14 27 2
v -13 26 2
v -13 27 2
v -12 24 2
v -12 25 2
v -12 26 2
v -12 27 2
v -11 26 2
v -11 27 2
v -7 24 2
v -7 25 2
v -3 14 2
v -3 15 2
v -3 18 2
v -3 19 2
v -2 13 2
v -2 14 2
v -2 15 2
v -2 17 2
v -2 18 2
v -2 19 2
v -2 24 2
v -2 25 2
v -1 13 2
v -1 14 2
v -1 17 2
v -1 24 2
v -1 25 2
v 1 13 2
v 1 14 2
v 1 17 2
v 1 24 2
v 1 25 2
v 2 13 2
v 2 14 2
v 2 15 2
v 2 17 2
v 2 18 2
v 2 19 2
v 2 24 2
v 2 25 2
v 3 14 2
v 3 15 2
v 3 18 2
v 3 19 2
v 7 24 2
v 7 25 2
v 11 26 2
v 11 27 2
v 12 24 2
v 12 25 2
v 12 26 2
v 12 27 2
v 13 26 2
v 13 27 2
v 14 26 2
v 14 27 2
v -15 22 1
v -15 23 1
v -14 23 1
v -14 24 1
v -14 26 1
v -13 22 1
v -13 23 1
v -13 24 1
v -13 25 1
v -13 26 1
v -12 23 1
v -12 24 1
v -12 25 1
v -12 26 1
v -11 23 1
v -11 24 1
v -11 25 1
v -11 26 1
v -10 23 1
v -10 24 1
v -9 23 1
v -9 24 1
v -8 23 1
v -8 24 1
v -7 24 1
v -6 23 1
v -6 24 1
v -5 11 1
v -5 12 1
v -4 11 1
v -4 12 1
v -4 13 1
v -4 27 1
v -4 28 1
v -3 13 1
v -3 14 1
v -3 19 1
v -3 20 1
v -3 26 1
v -3 27 1
v -3 28 1
v -2 10 1
v -2 11 1
v -2 12 1
v -2 13 1
v -2 14 1
v -2 18 1
v -2 19 1
v -2 20 1
v -2 25 1
v -2 26 1
v -2 27 1
v -1 10 1
v -1 11 1
v -1 12 1
v -1 13 1
v -1 23 1
v -1 24 1
v -1 25 1
v -1 26 1
v 1 10 1
v 1 11 1
v 1 12 1
v 1 13 1
v 1 23 1
v 1 24 1
v 1 25 1
v 1 26 1
v 2 10 1
v 2 11 1
v 2 12 1
v 2 13 1
v 2 14 1
v 2 18 1
v 2 19 1
v 2 20 1
v 2 25 1
v 2 26 1
v 2 27 1
v 3 13 1
v 3 14 1
v 3 19 1
v 3 20 1
v 3 26 1
v 3 27 1
v 3 28 1
v 4 11 1
v 4 12 1
v 4 13 1
v 4 27 1
v 4 28 1
v 5 11 1
v 5 12 1
v 6 23 1
v 6 24 1
v 7 24 1
v 8 23 1
v 8 24 1
v 9 23 1
v 9 24 1
v 10 23 1
v 10 24 1
v 11 23 1
v 11 24 1
v 11 25 1
v 11 26 1
v 12 23 1
v 12 24 1
v 12 25 1
v 12 26 1
v 13 22 1
v 13 23 1
v 13 24 1
v 13 25 1
v 13 26 1
v 14 23 1
v 14 24 1
v 14 26 1
v 15 22 1
v 15 23 1
v -15 18 -0
v -15 22 -0
v -14 18 -0
v -14 21 -0
v -13 21 -0
v -13 22 -0
v -13 23 -0
v -12 21 -0
v -12 23 -0
v -11 21 -0
v -11 23 -0
v -10 21 -0
v -10 22 -0
v -10 23 -0
v -9 22 -0
v -9 23 -0
v -8 22 -0
v -8 23 -0
v -7 22 -0
v -7 23 -0
v -6 22 -0
v -6 23 -0
v -5 12 -0
v -5 13 -0
v -5 22 -0
v -5 23 -0
v -5 25 -0
v -5 28 -0
v -4 10 -0
v -4 11 -0
v -4 12 -0
v -4 13 -0
v -4 18 -0
v -4 20 -0
v -4 24 -0
v -4 25 -0
v -4 27 -0
v -4 28 -0
v -3 18 -0
v -3 20 -0
v -3 24 -0
v -3 25 -0
v -2 10 -0
v -2 11 -0
v 2 10 -0
v 2 11 -0
v 3 18 -0
v 3 20 -0
v 3 24 -0
v 3 25 -0
v 4 10 -0
v 4 11 -0
v 4 12 -0
v 4 13 -0
v 4 18 -0
v 4 20 -0
v 4 24 -0
v 4 25 -0
v 4 27 -0
v 4 28 -0
v 5 12 -0
v 5 13 -0
v 5 22 -0
v 5 23 -0
v 5 25 -0
v 5 28 -0
v 6 22 -0
v 6 23 -0
v 7 22 -0
v 7 23 -0
v 8 22 -0
v 8 23 -0
v 9 22 -0
v 9 23 -0
v 10 21 -0
v 10 22 -0
v 10 23 -0
v 11 21 -0
v 11 23 -0
v 12 21 -0
v 12 23 -0
v 13 21 -0
v 13 22 -0
v 13 23 -0
v 14 18 -0
v 14 21 -0
v 15 18 -0
v 15 22 -0
v -14 19 -1
v -14 21 -1
v -13 19 -1
v -13 21 -1
v -12 19 -1
v -12 21 -1
v -11 19 -1
v -11 21 -1
v -10 19 -1
v -10 21 -1
v -10 22 -1
v -9 19 -1
v -9 20 -1
v -9 22 -1
v -8 20 -1
v -8 22 -1
v -7 20 -1
v -7 22 -1
v -6 20 -1
v -6 22 -1
v -5 20 -1
v -5 21 -1
v -5 22 -1
v -4 16 -1
v -4 18 -1
v -4 20 -1
v -4 21 -1
v -4 25 -1
v -4 27 -1
v -3 16 -1
v -3 18 -1
v -3 24 -1
v -3 25 -1
v -3 26 -1
v -3 27 -1
v -2 24 -1
v -2 25 -1
v -2 26 -1
v 2 24 -1
v 2 25 -1
v 2 26 -1
v 3 16 -1
v 3 18 -1
v 3 24 -1
v 3 25 -1
v 3 26 -1
v 3 27 -1
v 4 16 -1
v 4 18 -1
v 4 20 -1
v 4 21 -1
v 4 25 -1
v 4 27 -1
v 5 20 -1
v 5 21 -1
v 5 22 -1
v 6 20 -1
v 6 22 -1
v 7 20 -1
v 7 22 -1
v 8 20 -1
v 8 22 -1
v 9 19 -1
v 9 20 -1
v 9 22 -1
v 10 19 -1
v 10 21 -1
v 10 22 -1
v 11 19 -1
v 11 21 -1
v 12 19 -1
v 12 21 -1
v 13 19 -1
v 13 21 -1
v 14 19 -1
v 14 21 -1
v -11 18 -2
v -11 19 -2
v -10 17 -2
v -10 18 -2
v -10 19 -2
v -9 17 -2
v -9 19 -2
v -9 20 -2
v -8 17 -2
v -8 20 -2
v -7 16 -2
v -7 17 -2
v -7 18 -2
v -7 20 -2
v -6 16 -2
v -6 17 -2
v -6 18 -2
v -6 20 -2
v -5 18 -2
v -5 20 -2
v -4 17 -2
v -4 18 -2
v -4 20 -2
v 4 17 -2
v 4 18 -2
v 4 20 -2
v 5 18 -2
v 5 20 -2
v 6 16 -2
v 6 17 -2
v 6 18 -2
v 6 20 -2
v 7 16 -2
v 7 17 -2
v 7 18 -2
v 7 20 -2
v 8 17 -2
v 8 20 -2
v 9 17 -2
v 9 19 -2
v 9 20 -2
v 10 17 -2
v 10 18 -2
v 10 19 -2
v 11 18 -2
v 11 19 -2
v -10 15 -3
v -10 17 -3
v -9 17 -3
v -8 15 -3
v -8 16 -3
v -8 17 -3
v -7 16 -3
v -7 17 -3
v -3 9 -3
v -3 10 -3
v -2 9 -3
v -2 10 -3
v 2 9 -3
v 2 10 -3
v 3 9 -3
v 3 10 -3
v 7 16 -3
v 7 17 -3
v 8 15 -3
v 8 16 -3
v 8 17 -3
v 9 17 -3
v 10 15 -3
v 10 17 -3
v -10 14 -4
v -10 15 -4
v -9 14 -4
v -9 15 -4
v 9 14 -4
v 9 15 -4
v 10 14 -4
v 10 15 -4
v -2 9 4
v -2 10 4
v -1 9 4
v -1 10 4
v 1 9 4
v 1 10 4
v 2 9 4
v 2 10 4
v -2 10 3
v -2 11 3
v -2 18 3
v -2 19 3
v -1 10 3
v -1 11 3
v -1 18 3
v -1 19 3
v 1 10 3
v 1 11 3
v 1 18 3
v 1 19 3
v 2 10 3
v 2 11 3
v 2 18 3
v 2 19 3
v -5 9 2
v -5 10 2
v -4 9 2
v -4 10 2
v -2 11 2
v -2 12 2
v -1 11 2
v -1 12 2
v 1 11 2
v 1 12 2
v 2 11 2
v 2 12 2
v 4 9 2
v 4 10 2
v 5 9 2
v 5 10 2
v -14 24 -0
v -14 27 -0
v -13 24 -0
v -13 25 -0
v -13 26 -0
v -13 27 -0
v -12 26 -0
v -12 27 -0
v -11 25 -0
v -11 27 -0
v -7 24 -0
v -7 25 -0
v -2 10 -0
v -2 11 -0
v -1 10 -0
v -1 11 -0
v 1 10 -0
v 1 11 -0
v 2 10 -0
v 2 11 -0
v 7 24 -0
v 7 25 -0
v 11 25 -0
v 11 27 -0
v 12 26 -0
v 12 27 -0
v 13 24 -0
v 13 25 -0
v 13 26 -0
v 13 27 -0
v 14 24 -0
v 14 27 -0
v -15 22 -1
v -15 23 -1
v -14 23 -1
v -14 24 -1
v -13 22 -1
v -13 23 -1
v -6 22 -1
v -6 23 -1
v -6 24 -1
v -5 10 -1
v -5 13 -1
v -5 22 -1
v -5 23 -1
v -5 25 -1
v -5 28 -1
v -4 11 -1
v -4 13 -1
v -4 24 -1
v -4 25 -1
v -4 27 -1
v -3 10 -1
v -3 11 -1
v -3 20 -1
v -3 24 -1
v -3 25 -1
v -3 27 -1
v -3 28 -1
v -2 19 -1
v -2 20 -1
v -1 19 -1
v -1 22 -1
v -1 24 -1
v 1 19 -1
v 1 22 -1
v 1 24 -1
v 2 19 -1
v 2 20 -1
v 3 10 -1
v 3 11 -1
v 3 20 -1
v 3 24 -1
v 3 25 -1
v 3 27 -1
v 3 28 -1
v 4 11 -1
v 4 13 -1
v 4 24 -1
v 4 25 -1
v 4 27 -1
v 5 10 -1
v 5 13 -1
v 5 22 -1
v 5 23 -1
v 5 25 -1
v 5 28 -1
v 6 22 -1
v 6 23 -1
v 6 24 -1
v 13 22 -1
v 13 23 -1
v 14 23 -1
v 14 24 -1
v 15 22 -1
v 15 23 -1
v -15 18 -2
v -15 22 -2
v -14 18 -2
v -14 19 -2
v -13 19 -2
v -13 21 -2
v -13 22 -2
v -13 23 -2
v -9 21 -2
v -9 22 -2
v -6 21 -2
v -6 22 -2
v -6 23 -2
v -5 21 -2
v -5 22 -2
v -4 11 -2
v -4 13 -2
v -4 25 -2
v -4 27 -2
v -3 11 -2
v -3 12 -2
v -3 13 -2
v -3 14 -2
v -3 24 -2
v -3 25 -2
v -2 11 -2
v -2 12 -2
v -2 13 -2
v -2 14 -2
v -2 18 -2
v -2 19 -2
v -2 26 -2
v -2 27 -2
v -1 18 -2
v -1 19 -2
v -1 22 -2
v -1 24 -2
v -1 25 -2
v -1 26 -2
v 1 18 -2
v 1 19 -2
v 1 22 -2
v 1 24 -2
v 1 25 -2
v 1 26 -2
v 2 11 -2
v 2 12 -2
v 2 13 -2
v 2 14 -2
v 2 18 -2
v 2 19 -2
v 2 26 -2
v 2 27 -2
v 3 11 -2
v 3 12 -2
v 3 13 -2
v 3 14 -2
v 3 24 -2
v 3 25 -2
v 4 11 -2
v 4 13 -2
v 4 25 -2
v 4 27 -2
v 5 21 -2
v 5 22 -2
v 6 21 -2
v 6 22 -2
v 6 23 -2
v 9 21 -2
v 9 22 -2
v 13 19 -2
v 13 21 -2
v 13 22 -2
v 13 23 -2
v 14 18 -2
v 14 19 -2
v 15 18 -2
v 15 22 -2
v -13 19 -3
v -13 21 -3
v -11 18 -3
v -11 19 -3
v -10 18 -3
v -9 18 -3
v -9 20 -3
v -9 21 -3
v -9 22 -3
v -8 17 -3
v -8 20 -3
v -7 16 -3
v -7 17 -3
v -7 18 -3
v -7 20 -3
v -6 16 -3
v -6 17 -3
v -6 18 -3
v -6 20 -3
v -6 21 -3
v -6 22 -3
v -5 18 -3
v -5 20 -3
v -4 16 -3
v -4 17 -3
v -4 18 -3
v -4 20 -3
v -4 21 -3
v -3 11 -3
v -3 12 -3
v -3 14 -3
v -3 15 -3
v -3 16 -3
v -3 18 -3
v -2 11 -3
v -2 12 -3
v -2 13 -3
v -2 14 -3
v -2 15 -3
v -2 17 -3
v -2 18 -3
v -2 20 -3
v -1 17 -3
v -1 18 -3
v -1 21 -3
v -1 22 -3
v 1 17 -3
v 1 18 -3
v 1 21 -3
v 1 22 -3
v 2 11 -3
v 2 12 -3
v 2 13 -3
v 2 14 -3
v 2 15 -3
v 2 17 -3
v 2 18 -3
v 2 20 -3
v 3 11 -3
v 3 12 -3
v 3 14 -3
v 3 15 -3
v 3 16 -3
v 3 18 -3
v 4 16 -3
v 4 17 -3
v 4 18 -3
v 4 20 -3
v 4 21 -3
v 5 18 -3
v 5 20 -3
v 6 16 -3
v 6 17 -3
v 6 18 -3
v 6 20 -3
v 6 21 -3
v 6 22 -3
v 7 16 -3
v 7 17 -3
v 7 18 -3
v 7 20 -3
v 8 17 -3
v 8 20 -3
v 9 18 -3
v 9 20 -3
v 9 21 -3
v 9 22 -3
v 10 18 -3
v 11 18 -3
v 11 19 -3
v 13 19 -3
v 13 21 -3
v -10 16 -4
v -10 18 -4
v -9 15 -4
v -9 16 -4
v -9 18 -4
v -9 20 -4
v -8 15 -4
v -8 16 -4
v -8 17 -4
v -8 20 -4
v -7 16 -4
v -7 17 -4
v -7 18 -4
v -7 20 -4
v -6 18 -4
v -6 20 -4
v -5 18 -4
v -5 20 -4
v -4 18 -4
v -4 20 -4
v -3 9 -4
v -3 11 -4
v -3 15 -4
v -3 18 -4
v -2 9 -4
v -2 11 -4
v -2 14 -4
v -2 15 -4
v -2 17 -4
v -2 18 -4
v -1 17 -4
v -1 21 -4
v 1 17 -4
v 1 21 -4
v 2 9 -4
v 2 11 -4
v 2 14 -4
v 2 15 -4
v 2 17 -4
v 2 18 -4
v 3 9 -4
v 3 11 -4
v 3 15 -4
v 3 18 -4
v 4 18 -4
v 4 20 -4
v 5 18 -4
v 5 20 -4
v 6 18 -4
v 6 20 -4
v 7 16 -4
v 7 17 -4
v 7 18 -4
v 7 20 -4
v 8 15 -4
v 8 16 -4
v 8 17 -4
v 8 20 -4
v 9 15 -4
v 9 16 -4
v 9 18 -4
v 9 20 -4
v 10 16 -4
v 10 18 -4
v -10 14 -5
v -10 16 -5
v -9 14 -5
v -9 16 -5
v 9 14 -5
v 9 16 -5
v 10 14 -5
v 10 16 -5
v -2 9 5
v -1 9 5
v 1 9 5
v 2 9 5
v -2 9 4
v -1 9 4
v 1 9 4
v 2 9 4
v -5 9 3
v -4 9 3
v 4 9 3
v 5 9 3
v -5 9 2
v -4 9 2
v 4 9 2
v 5 9 2
v -3 9 -3
v -2 9 -3
v 2 9 -3
v 3 9 -3
v -3 9 -4
v -2 9 -4
v 2 9 -4
v 3 9 -4
v -2 10 4
v -1 10 4
v 1 10 4
v 2 10 4
v -2 10 3
v -1 10 3
v 1 10 3
v 2 10 3
v -5 10 2
v -4 10 2
v 4 10 2
v 5 10 2
v -2 10 1
v -1 10 1
v 1 10 1
v 2 10 1
v -4 10 -0
v -2 10 -0
v -1 10 -0
v 1 10 -0
v 2 10 -0
v 4 10 -0
v -5 10 -1
v -3 10 -1
v 3 10 -1
v 5 10 -1
v -3 10 -3
v -2 10 -3
v 2 10 -3
v 3 10 -3
v -2 11 3
v -1 11 3
v 1 11 3
v 2 11 3
v -2 11 2
v -1 11 2
v 1 11 2
v 2 11 2
v -4 11 1
v -2 11 1
v -1 11 1
v 1 11 1
v 2 11 1
v 4 11 1
v -4 11 -0
v -2 11 -0
v -1 11 -0
v 1 11 -0
v 2 11 -0
v 4 11 -0
v -4 11 -1
v -3 11 -1
v 3 11 -1
v 4 11 -1
v -4 11 -2
v -3 11 -2
v -2 11 -2
v 2 11 -2
v 3 11 -2
v 4 11 -2
v -2 12 2
v -1 12 2
v 1 12 2
v 2 12 2
v -2 12 1
v -1 12 1
v 1 12 1
v 2 12 1
v -1 13 2
v 1 13 2
v -1 13 1
v 1 13 1
v -2 13 -2
v 2 13 -2
v -2 13 -3
v 2 13 -3
v -2 14 3
v -1 14 3
v 1 14 3
v 2 14 3
v -3 14 2
v -2 14 2
v -1 14 2
v 1 14 2
v 2 14 2
v 3 14 2
v -3 14 1
v -2 14 1
v 2 14 1
v 3 14 1
v -3 14 -2
v -2 14 -2
v 2 14 -2
v 3 14 -2
v -3 14 -3
v -2 14 -3
v 2 14 -3
v 3 14 -3
v -10 14 -4
v -9 14 -4
v -2 14 -4
v 2 14 -4
v 9 14 -4
v 10 14 -4
v -10 14 -5
v -9 14 -5
v 9 14 -5
v 10 14 -5
v -3 15 3
v -2 15 3
v 2 15 3
v 3 15 3
v -3 15 2
v -2 15 2
v 2 15 2
v 3 15 2
v -10 15 -3
v -8 15 -3
v -3 15 -3
v -2 15 -3
v 2 15 -3
v 3 15 -3
v 8 15 -3
v 10 15 -3
v -10 15 -4
v -9 15 -4
v -8 15 -4
v -3 15 -4
v -2 15 -4
v 2 15 -4
v 3 15 -4
v 8 15 -4
v 9 15 -4
v 10 15 -4
v -4 16 -1
v -3 16 -1
v 3 16 -1
v 4 16 -1
v -7 16 -2
v -6 16 -2
v 6 16 -2
v 7 16 -2
v -8 16 -3
v -7 16 -3
v -6 16 -3
v -4 16 -3
v -3 16 -3
v 3 16 -3
v 4 16 -3
v 6 16 -3
v 7 16 -3
v 8 16 -3
v -8 16 -4
v -7 16 -4
v 7 16 -4
v 8 16 -4
v -10 17 -2
v -9 17 -2
v -8 17 -2
v -7 17 -2
v -6 17 -2
v -4 17 -2
v 4 17 -2
v 6 17 -2
v 7 17 -2
v 8 17 -2
v 9 17 -2
v 10 17 -2
v -10 17 -3
v -9 17 -3
v -8 17 -3
v -7 17 -3
v -6 17 -3
v -4 17 -3
v 4 17 -3
v 6 17 -3
v 7 17 -3
v 8 17 -3
v 9 17 -3
v 10 17 -3
v -2 18 4
v -1 18 4
v 1 18 4
v 2 18 4
v -2 18 3
v -1 18 3
v 1 18 3
v 2 18 3
v -15 18 -0
v -14 18 -0
v -4 18 -0
v -3 18 -0
v 3 18 -0
v 4 18 -0
v 14 18 -0
v 15 18 -0
v -4 18 -1
v -3 18 -1
v 3 18 -1
v 4 18 -1
v -15 18 -2
v -14 18 -2
v -11 18 -2
v -10 18 -2
v 10 18 -2
v 11 18 -2
v 14 18 -2
v 15 18 -2
v -11 18 -3
v -10 18 -3
v -7 18 -3
v -6 18 -3
v -5 18 -3
v -4 18 -3
v 4 18 -3
v 5 18 -3
v 6 18 -3
v 7 18 -3
v 10 18 -3
v 11 18 -3
v -7 18 -4
v -6 18 -4
v -5 18 -4
v -4 18 -4
v 4 18 -4
v 5 18 -4
v 6 18 -4
v 7 18 -4
v -2 19 3
v -1 19 3
v 1 19 3
v 2 19 3
v -2 19 2
v 2 19 2
v -2 19 1
v 2 19 1
v -14 19 -1
v -13 19 -1
v -12 19 -1
v -11 19 -1
v -10 19 -1
v -9 19 -1
v 9 19 -1
v 10 19 -1
v 11 19 -1
v 12 19 -1
v 13 19 -1
v 14 19 -1
v -14 19 -2
v -13 19 -2
v -12 19 -2
v -11 19 -2
v -10 19 -2
v -9 19 -2
v 9 19 -2
v 10 19 -2
v 11 19 -2
v 12 19 -2
v 13 19 -2
v 14 19 -2
v -13 19 -3
v -11 19 -3
v 11 19 -3
v 13 19 -3
v -1 20 4
v 1 20 4
v -3 20 3
v -2 20 3
v -1 20 3
v 1 20 3
v 2 20 3
v 3 20 3
v -3 20 1
v -2 20 1
v 2 20 1
v 3 20 1
v -9 20 -1
v -8 20 -1
v -7 20 -1
v -6 20 -1
v -5 20 -1
v -4 20 -1
v 4 20 -1
v 5 20 -1
v 6 20 -1
v 7 20 -1
v 8 20 -1
v 9 20 -1
v -9 20 -2
v -8 20 -2
v -7 20 -2
v -6 20 -2
v -5 20 -2
v -4 20 -2
v 4 20 -2
v 5 20 -2
v 6 20 -2
v 7 20 -2
v 8 20 -2
v 9 20 -2
v -14 21 -0
v -13 21 -0
v -12 21 -0
v -11 21 -0
v -10 21 -0
v 10 21 -0
v 11 21 -0
v 12 21 -0
v 13 21 -0
v 14 21 -0
v -14 21 -1
v -13 21 -1
v -12 21 -1
v -11 21 -1
v -10 21 -1
v 10 21 -1
v 11 21 -1
v 12 21 -1
v 13 21 -1
v 14 21 -1
v -15 22 1
v -13 22 1
v 13 22 1
v 15 22 1
v -15 22 -0
v -13 22 -0
v -10 22 -0
v -9 22 -0
v -8 22 -0
v -7 22 -0
v -6 22 -0
v -5 22 -0
v 5 22 -0
v 6 22 -0
v 7 22 -0
v 8 22 -0
v 9 22 -0
v 10 22 -0
v 13 22 -0
v 15 22 -0
v -10 22 -1
v -9 22 -1
v -8 22 -1
v -7 22 -1
v -6 22 -1
v -5 22 -1
v 5 22 -1
v 6 22 -1
v 7 22 -1
v 8 22 -1
v 9 22 -1
v 10 22 -1
v -13 23 1
v -12 23 1
v -11 23 1
v -10 23 1
v -9 23 1
v -8 23 1
v -6 23 1
v 6 23 1
v 8 23 1
v 9 23 1
v 10 23 1
v 11 23 1
v 12 23 1
v 13 23 1
v -13 23 -0
v -12 23 -0
v -11 23 -0
v -10 23 -0
v -9 23 -0
v -8 23 -0
v -7 23 -0
v -6 23 -0
v 6 23 -0
v 7 23 -0
v 8 23 -0
v 9 23 -0
v 10 23 -0
v 11 23 -0
v 12 23 -0
v 13 23 -0
v -12 24 2
v -7 24 2
v 7 24 2
v 12 24 2
v -12 24 1
v -11 24 1
v -10 24 1
v -9 24 1
v -8 24 1
v -7 24 1
v 7 24 1
v 8 24 1
v 9 24 1
v 10 24 1
v 11 24 1
v 12 24 1
v -4 24 -0
v -3 24 -0
v 3 24 -0
v 4 24 -0
v -4 24 -1
v -3 24 -1
v -1 24 -1
v 1 24 -1
v 3 24 -1
v 4 24 -1
v -3 24 -2
v -1 24 -2
v 1 24 -2
v 3 24 -2
v -5 25 -0
v -4 25 -0
v 4 25 -0
v 5 25 -0
v -5 25 -1
v -4 25 -1
v -3 25 -1
v 3 25 -1
v 4 25 -1
v 5 25 -1
v -4 25 -2
v -3 25 -2
v 3 25 -2
v 4 25 -2
v -14 26 2
v -13 26 2
v -12 26 2
v -11 26 2
v 11 26 2
v 12 26 2
v 13 26 2
v 14 26 2
v -14 26 1
v -13 26 1
v -12 26 1
v -11 26 1
v -3 26 1
v -2 26 1
v 2 26 1
v 3 26 1
v 11 26 1
v 12 26 1
v 13 26 1
v 14 26 1
v -3 26 -1
v -2 26 -1
v 2 26 -1
v 3 26 -1
v -4 27 1
v -3 27 1
v 3 27 1
v 4 27 1
v -4 27 -0
v 4 27 -0
v -4 27 -1
v -3 27 -1
v 3 27 -1
v 4 27 -1
v -2 11 5
v -1 11 5
v 1 11 5
v 2 11 5
v -2 11 4
v -1 11 4
v 1 11 4
v 2 11 4
v -5 11 3
v -4 11 3
v 4 11 3
v 5 11 3
v -5 11 1
v -4 11 1
v 4 11 1
v 5 11 1
v -3 11 -3
v -2 11 -3
v 2 11 -3
v 3 11 -3
v -3 11 -4
v -2 11 -4
v 2 11 -4
v 3 11 -4
v -2 12 4
v -1 12 4
v 1 12 4
v 2 12 4
v -2 12 3
v -1 12 3
v 1 12 3
v 2 12 3
v -5 12 1
v -4 12 1
v 4 12 1
v 5 12 1
v -5 12 -0
v -4 12 -0
v 4 12 -0
v 5 12 -0
v -3 12 -2
v -2 12 -2
v 2 12 -2
v 3 12 -2
v -3 12 -3
v -2 12 -3
v 2 12 -3
v 3 12 -3
v -2 13 3
v -1 13 3
v 1 13 3
v 2 13 3
v -2 13 2
v -1 13 2
v 1 13 2
v 2 13 2
v -4 13 1
v -3 13 1
v 3 13 1
v 4 13 1
v -5 13 -0
v -4 13 -0
v 4 13 -0
v 5 13 -0
v -5 13 -1
v -4 13 -1
v 4 13 -1
v 5 13 -1
v -4 13 -2
v -3 13 -2
v 3 13 -2
v 4 13 -2
v -10 16 -4
v -9 16 -4
v 9 16 -4
v 10 16 -4
v -10 16 -5
v -9 16 -5
v 9 16 -5
v 10 16 -5
v -2 17 3
v -1 17 3
v 1 17 3
v 2 17 3
v -2 17 2
v -1 17 2
v 1 17 2
v 2 17 2
v -8 17 -3
v -7 17 -3
v -2 17 -3
v -1 17 -3
v 1 17 -3
v 2 17 -3
v 7 17 -3
v 8 17 -3
v -8 17 -4
v -7 17 -4
v -2 17 -4
v -1 17 -4
v 1 17 -4
v 2 17 -4
v 7 17 -4
v 8 17 -4
v -3 18 3
v -2 18 3
v 2 18 3
v 3 18 3
v -3 18 2
v -2 18 2
v 2 18 2
v 3 18 2
v -2 18 1
v 2 18 1
v -2 18 -2
v -1 18 -2
v 1 18 -2
v 2 18 -2
v -10 18 -3
v -9 18 -3
v -3 18 -3
v -2 18 -3
v -1 18 -3
v 1 18 -3
v 2 18 -3
v 3 18 -3
v 9 18 -3
v 10 18 -3
v -10 18 -4
v -9 18 -4
v -3 18 -4
v -2 18 -4
v 2 18 -4
v 3 18 -4
v 9 18 -4
v 10 18 -4
v -3 19 2
v -2 19 2
v 2 19 2
v 3 19 2
v -3 19 1
v -2 19 1
v 2 19 1
v 3 19 1
v -2 19 -1
v -1 19 -1
v 1 19 -1
v 2 19 -1
v -2 19 -2
v -1 19 -2
v 1 19 -2
v 2 19 -2
v -4 20 -0
v -3 20 -0
v 3 20 -0
v 4 20 -0
v -4 20 -1
v -3 20 -1
v -2 20 -1
v 2 20 -1
v 3 20 -1
v 4 20 -1
v -4 20 -2
v 4 20 -2
v -9 20 -3
v -8 20 -3
v -7 20 -3
v -6 20 -3
v -5 20 -3
v -4 20 -3
v -2 20 -3
v 2 20 -3
v 4 20 -3
v 5 20 -3
v 6 20 -3
v 7 20 -3
v 8 20 -3
v 9 20 -3
v -9 20 -4
v -8 20 -4
v -7 20 -4
v -6 20 -4
v -5 20 -4
v -4 20 -4
v 4 20 -4
v 5 20 -4
v 6 20 -4
v 7 20 -4
v 8 20 -4
v 9 20 -4
v -2 21 4
v -1 21 4
v 1 21 4
v 2 21 4
v -2 21 3
v -1 21 3
v 1 21 3
v 2 21 3
v -5 21 -1
v -4 21 -1
v 4 21 -1
v 5 21 -1
v -13 21 -2
v -9 21 -2
v -6 21 -2
v -5 21 -2
v -4 21 -2
v 4 21 -2
v 5 21 -2
v 6 21 -2
v 9 21 -2
v 13 21 -2
v -13 21 -3
v -9 21 -3
v -6 21 -3
v -4 21 -3
v -1 21 -3
v 1 21 -3
v 4 21 -3
v 6 21 -3
v 9 21 -3
v 13 21 -3
v -1 21 -4
v 1 21 -4
v -1 22 4
v 1 22 4
v -1 22 3
v 1 22 3
v -15 22 -1
v -13 22 -1
v -6 22 -1
v -5 22 -1
v 5 22 -1
v 6 22 -1
v 13 22 -1
v 15 22 -1
v -15 22 -2
v -13 22 -2
v -9 22 -2
v -6 22 -2
v -5 22 -2
v -1 22 -2
v 1 22 -2
v 5 22 -2
v 6 22 -2
v 9 22 -2
v 13 22 -2
v 15 22 -2
v -9 22 -3
v -6 22 -3
v -1 22 -3
v 1 22 -3
v 6 22 -3
v 9 22 -3
v -1 23 3
v 1 23 3
v -1 23 2
v 1 23 2
v -15 23 1
v -14 23 1
v -1 23 1
v 1 23 1
v 14 23 1
v 15 23 1
v -6 23 -0
v -5 23 -0
v 5 23 -0
v 6 23 -0
v -15 23 -1
v -14 23 -1
v -13 23 -1
v -6 23 -1
v -5 23 -1
v 5 23 -1
v 6 23 -1
v 13 23 -1
v 14 23 -1
v 15 23 -1
v -13 23 -2
v -6 23 -2
v 6 23 -2
v 13 23 -2
v -3 24 3
v -2 24 3
v -1 24 3
v 1 24 3
v 2 24 3
v 3 24 3
v -2 24 2
v -1 24 2
v 1 24 2
v 2 24 2
v -7 24 1
v -6 24 1
v -2 24 1
v 2 24 1
v 6 24 1
v 7 24 1
v -14 24 -0
v -13 24 -0
v -7 24 -0
v -3 24 -0
v 3 24 -0
v 7 24 -0
v 13 24 -0
v 14 24 -0
v -14 24 -1
v -6 24 -1
v -3 24 -1
v -2 24 -1
v 2 24 -1
v 3 24 -1
v 6 24 -1
v 14 24 -1
v -12 25 2
v -7 25 2
v -2 25 2
v -1 25 2
v 1 25 2
v 2 25 2
v 7 25 2
v 12 25 2
v -12 25 1
v -11 25 1
v -2 25 1
v -1 25 1
v 1 25 1
v 2 25 1
v 11 25 1
v 12 25 1
v -11 25 -0
v -7 25 -0
v -4 25 -0
v -3 25 -0
v 3 25 -0
v 4 25 -0
v 7 25 -0
v 11 25 -0
v -4 25 -1
v -3 25 -1
v 3 25 -1
v 4 25 -1
v -1 25 -2
v 1 25 -2
v -13 26 1
v -12 26 1
v -2 26 1
v -1 26 1
v 1 26 1
v 2 26 1
v 12 26 1
v 13 26 1
v -13 26 -0
v -12 26 -0
v 12 26 -0
v 13 26 -0
v -2 26 -2
v -1 26 -2
v 1 26 -2
v 2 26 -2
v -14 27 2
v -13 27 2
v -12 27 2
v -11 27 2
v 11 27 2
v 12 27 2
v 13 27 2
v 14 27 2
v -3 27 1
v -2 27 1
v 2 27 1
v 3 27 1
v -14 27 -0
v -13 27 -0
v -12 27 -0
v -11 27 -0
v 11 27 -0
v 12 27 -0
v 13 27 -0
v 14 27 -0
v -4 27 -1
v -3 27 -1
v 3 27 -1
v 4 27 -1
v -4 27 -2
v -2 27 -2
v 2 27 -2
v 4 27 -2
v -4 28 1
v -3 28 1
v 3 28 1
v 4 28 1
v -5 28 -0
v -4 28 -0
v 4 28 -0
v 5 28 -0
v -5 28 -1
v -3 28 -1
v 3 28 -1
v 5 28 -1

# faces
f 4/4/1 2/4/1 1/4/1
f 5/4/1 2/4/1 4/4/1
f 6/4/1 2/4/1 5/4/1
f 7/4/1 4/4/1 3/4/1
f 7/4/1 5/4/1 4/4/1
f 8/4/1 5/4/1 7/4/1
f 11/4/1 10/4/1 9/4/1
f 12/4/1 10/4/1 11/4/1
f 13/4/1 10/4/1 12/4/1
f 15/2/1 12/2/1 11/2/1
f 16/2/1 15/2/1 14/2/1
f 17/2/1 12/2/1 15/2/1
f 17/2/1 15/2/1 16/2/1
f 20/4/1 19/4/1 18/4/1
f 21/4/1 19/4/1 20/4/1
f 24/4/1 23/4/1 22/4/1
f 25/4/1 23/4/1 24/4/1
f 28/4/1 27/4/1 26/4/1
f 29/4/1 27/4/1 28/4/1
f 33/2/1 31/2/1 30/2/1
f 33/2/1 32/2/1 31/2/1
f 34/2/1 32/2/1 33/2/1
f 37/4/1 36/4/1 35/4/1
f 38/4/1 36/4/1 37/4/1
f 42/4/1 40/4/1 39/4/1
f 43/4/1 40/4/1 42/4/1
f 43/4/1 42/4/1 41/4/1
f 44/4/1 40/4/1 43/4/1
f 46/4/1 43/4/1 41/4/1
f 47/4/1 46/4/1 45/4/1
f 48/4/1 43/4/1 46/4/1
f 48/4/1 46/4/1 47/4/1
f 49/4/1 43/4/1 48/4/1
f 52/4/1 51/4/1 50/4/1
f 53/4/1 51/4/1 52/4/1
f 56/4/1 55/4/1 54/4/1
f 57/4/1 55/4/1 56/4/1
f 60/4/1 59/4/1 58/4/1
f 61/4/1 59/4/1 60/4/1
f 64/4/1 63/4/1 62/4/1
f 65/4/1 63/4/1 64/4/1
f 68/2/1 67/2/1 66/2/1
f 70/2/1 68/2/1 66/2/1
f 70/2/1 69/2/1 68/2/1
f 71/2/1 69/2/1 70/2/1
f 72/2/1 69/2/1 71/2/1
f 73/2/1 69/2/1 72/2/1
f 74/2/1 69/2/1 73/2/1
f 75/2/1 69/2/1 74/2/1
f 78/4/1 77/4/1 76/4/1
f 79/4/1 77/4/1 78/4/1
f 82/3/1 81/3/1 80/3/1
f 83/3/1 81/3/1 82/3/1
f 88/4/1 87/4/1 86/4/1
f 89/4/1 87/4/1 88/4/1
f 90/4/1 85/4/1 84/4/1
f 91/4/1 85/4/1 90/4/1
f 94/4/1 93/4/1 92/4/1
f 95/4/1 93/4/1 94/4/1
f 97/4/1 94/4/1 92/4/1
f 98/4/1 94/4/1 97/4/1
f 99/4/1 97/4/1 96/4/1
f 99/4/1 98/4/1 97/4/1
f 100/4/1 98/4/1 99/4/1
f 101/4/1 98/4/1 100/4/1
f 104/3/1 103/3/1 102/3/1
f 105/3/1 103/3/1 104/3/1
f 109/3/1 106/3/1 105/3/1
f 110/3/1 106/3/1 109/3/1
f 111/3/1 108/3/1 107/3/1
f 112/3/1 108/3/1 111/3/1
f 116/2/1 114/2/1 113/2/1
f 117/2/1 116/2/1 115/2/1
f 118/2/1 116/2/1 117/2/1
f 119/2/1 114/2/1 116/2/1
f 119/2/1 116/2/1 118/2/1
f 120/2/1 114/2/1 119/2/1
f 121/2/1 119/2/1 118/2/1
f 122/2/1 119/2/1 121/2/1
f 126/4/1 124/4/1 123/4/1
f 127/4/1 124/4/1 126/4/1
f 130/4/1 126/4/1 125/4/1
f 130/4/1 128/4/1 127/4/1
f 130/4/1 127/4/1 126/4/1
f 131/4/1 128/4/1 130/4/1
f 133/4/1 131/4/1 130/4/1
f 133/4/1 132/4/1 131/4/1
f 133/4/1 130/4/1 129/4/1
f 134/4/1 132/4/1 133/4/1
f 135/4/1 133/4/1 129/4/1
f 136/4/1 133/4/1 135/4/1
f 137/4/1 133/4/1 136/4/1
f 138/4/1 133/4/1 137/4/1
f 139/4/1 132/4/1 134/4/1
f 140/4/1 132/4/1 139/4/1
f 141/4/1 137/4/1 136/4/1
f 142/4/1 137/4/1 141/4/1
f 144/4/1 137/4/1 142/4/1
f 145/4/1 137/4/1 144/4/1
f 147/3/1 144/3/1 143/3/1
f 147/3/1 146/3/1 145/3/1
f 147/3/1 145/3/1 144/3/1
f 148/3/1 146/3/1 147/3/1
f 149/3/1 146/3/1 148/3/1
f 151/3/1 150/3/1 149/3/1
f 152/3/1 150/3/1 151/3/1
f 155/3/1 154/3/1 153/3/1
f 156/3/1 154/3/1 155/3/1
f 159/2/1 158/2/1 157/2/1
f 163/2/1 159/2/1 157/2/1
f 163/2/1 160/2/1 159/2/1
f 164/2/1 160/2/1 163/2/1
f 165/2/1 160/2/1 164/2/1
f 167/2/1 162/2/1 161/2/1
f 168/2/1 162/2/1 167/2/1
f 169/2/1 166/2/1 165/2/1
f 169/2/1 165/2/1 164/2/1
f 170/2/1 166/2/1 169/2/1
f 171/2/1 166/2/1 170/2/1
f 173/2/1 172/2/1 171/2/1
f 173/2/1 171/2/1 170/2/1
f 174/2/1 172/2/1 173/2/1
f 175/2/1 172/2/1 174/2/1
f 179/1/1 175/1/1 174/1/1
f 180/1/1 175/1/1 179/1/1
f 181/4/1 177/4/1 176/4/1
f 182/4/1 177/4/1 181/4/1
f 184/1/1 179/1/1 178/1/1
f 185/1/1 179/1/1 184/1/1
f 186/4/1 183/4/1 182/4/1
f 187/4/1 183/4/1 186/4/1
f 190/6/1 189/6/1 188/6/1
f 193/6/1 190/6/1 188/6/1
f 193/3/1 192/3/1 191/3/1
f 193/3/1 191/3/1 190/3/1
f 194/3/1 192/3/1 193/3/1
f 195/6/1 193/6/1 188/6/1
f 196/6/1 193/6/1 195/6/1
f 200/3/1 198/3/1 197/3/1
f 201/4/1 199/4/1 198/4/1
f 201/3/1 198/3/1 200/3/1
f 202/4/1 199/4/1 201/4/1
f 203/3/1 202/3/1 201/3/1
f 204/3/1 202/3/1 203/3/1
f 208/4/1 206/4/1 205/4/1
f 210/4/1 208/4/1 207/4/1
f 213/4/1 206/4/1 208/4/1
f 213/4/1 208/4/1 210/4/1
f 213/4/1 210/4/1 209/4/1
f 214/4/1 206/4/1 213/4/1
f 215/1/1 212/1/1 211/1/1
f 216/1/1 212/1/1 215/1/1
f 217/4/1 213/4/1 209/4/1
f 218/4/1 213/4/1 217/4/1
f 219/4/1 213/4/1 218/4/1
f 220/3/1 218/3/1 217/3/1
f 221/3/1 218/3/1 220/3/1
f 224/2/1 223/2/1 222/2/1
f 228/2/1 224/2/1 222/2/1
f 228/2/1 225/2/1 224/2/1
f 229/2/1 225/2/1 228/2/1
f 230/2/1 225/2/1 229/2/1
f 232/2/1 227/2/1 226/2/1
f 233/2/1 227/2/1 232/2/1
f 234/2/1 231/2/1 230/2/1
f 234/2/1 230/2/1 229/2/1
f 235/2/1 231/2/1 234/2/1
f 236/2/1 231/2/1 235/2/1
f 238/2/1 237/2/1 236/2/1
f 238/2/1 236/2/1 235/2/1
f 239/2/1 237/2/1 238/2/1
f 240/2/1 237/2/1 239/2/1
f 243/6/1 242/6/1 241/6/1
f 244/6/1 243/6/1 241/6/1
f 245/6/1 243/6/1 244/6/1
f 249/5/1 247/5/1 246/5/1
f 250/4/1 248/4/1 247/4/1
f 250/5/1 247/5/1 249/5/1
f 251/4/1 248/4/1 250/4/1
f 252/3/1 251/3/1 250/3/1
f 253/3/1 251/3/1 252/3/1
f 255/3/1 254/3/1 253/3/1
f 256/3/1 254/3/1 255/3/1
f 260/2/1 258/2/1 257/2/1
f 261/2/1 260/2/1 259/2/1
f 262/2/1 260/2/1 261/2/1
f 263/2/1 258/2/1 260/2/1
f 263/2/1 260/2/1 262/2/1
f 264/2/1 258/2/1 263/2/1
f 265/2/1 263/2/1 262/2/1
f 266/2/1 263/2/1 265/2/1
f 271/4/1 268/4/1 267/4/1
f 272/4/1 268/4/1 271/4/1
f 275/4/1 270/4/1 269/4/1
f 276/4/1 270/4/1 275/4/1
f 277/4/1 273/4/1 272/4/1
f 278/4/1 273/4/1 277/4/1
f 280/4/1 275/4/1 274/4/1
f 281/4/1 280/4/1 279/4/1
f 282/4/1 275/4/1 280/4/1
f 282/4/1 280/4/1 281/4/1
f 285/3/1 284/3/1 283/3/1
f 286/3/1 284/3/1 285/3/1
f 289/3/1 288/3/1 287/3/1
f 290/3/1 288/3/1 289/3/1
f 293/3/1 292/3/1 291/3/1
f 294/3/1 292/3/1 293/3/1
f 297/2/1 296/2/1 295/2/1
f 299/2/1 297/2/1 295/2/1
f 299/2/1 298/2/1 297/2/1
f 300/2/1 298/2/1 299/2/1
f 301/2/1 298/2/1 300/2/1
f 306/4/1 303/4/1 302/4/1
f 307/4/1 303/4/1 306/4/1
f 308/1/1 305/1/1 304/1/1
f 309/4/1 306/4/1 305/4/1
f 309/1/1 305/1/1 308/1/1
f 310/4/1 306/4/1 309/4/1
f 313/3/1 312/3/1 311/3/1
f 314/3/1 312/3/1 313/3/1
f 318/4/1 316/4/1 315/4/1
f 319/4/1 316/4/1 318/4/1
f 320/4/1 318/4/1 317/4/1
f 321/4/1 318/4/1 320/4/1
f 324/4/1 323/4/1 322/4/1
f 325/4/1 323/4/1 324/4/1
f 328/4/1 327/4/1 326/4/1
f 329/4/1 327/4/1 328/4/1
f 333/4/1 331/4/1 330/4/1
f 334/4/1 331/4/1 333/4/1
f 337/4/1 333/4/1 332/4/1
f 338/4/1 333/4/1 337/4/1
f 339/4/1 336/4/1 335/4/1
f 339/4/1 337/4/1 336/4/1
f 340/4/1 337/4/1 339/4/1
f 343/4/1 342/4/1 341/4/1
f 344/4/1 342/4/1 343/4/1
f 348/4/1 346/4/1 345/4/1
f 348/4/1 347/4/1 346/4/1
f 349/4/1 347/4/1 348/4/1
f 352/4/1 351/4/1 350/4/1
f 353/4/1 351/4/1 352/4/1
f 356/4/1 355/4/1 354/4/1
f 357/4/1 355/4/1 356/4/1
f 360/4/1 359/4/1 358/4/1
f 361/4/1 359/4/1 360/4/1
f 362/4/1 359/4/1 361/4/1
f 365/4/1 364/4/1 363/4/1
f 366/4/1 364/4/1 365/4/1
f 369/1/1 368/1/1 367/1/1
f 370/1/1 368/1/1 369/1/1
f 374/2/1 372/2/1 371/2/1
f 375/2/1 374/2/1 373/2/1
f 376/2/1 372/2/1 374/2/1
f 376/2/1 374/2/1 375/2/1
f 379/4/1 378/4/1 377/4/1
f 380/4/1 378/4/1 379/4/1
f 384/2/1 382/2/1 381/2/1
f 384/2/1 383/2/1 382/2/1
f 385/2/1 383/2/1 384/2/1
f 388/4/1 387/4/1 386/4/1
f 389/4/1 387/4/1 388/4/1
f 390/4/1 388/4/1 386/4/1
f 391/4/1 388/4/1 390/4/1
f 392/4/2 393/4/2 394/4/2
f 394/4/2 393/4/2 395/4/2
f 392/4/2 394/4/2 396/4/2
f 396/4/2 394/4/2 397/4/2
f 398/4/2 399/4/2 400/4/2
f 400/4/2 399/4/2 401/4/2
f 402/2/2 403/2/2 405/2/2
f 403/2/2 404/2/2 405/2/2
f 405/2/2 404/2/2 406/2/2
f 407/2/2 408/2/2 410/2/2
f 409/2/2 410/2/2 411/2/2
f 410/2/2 408/2/2 412/2/2
f 411/2/2 410/2/2 412/2/2
f 413/1/2 414/1/2 415/1/2
f 415/1/2 414/1/2 416/1/2
f 417/4/2 418/4/2 419/4/2
f 419/4/2 418/4/2 420/4/2
f 420/4/2 418/4/2 421/4/2
f 422/4/2 423/4/2 424/4/2
f 424/4/2 423/4/2 425/4/2
f 426/4/2 427/4/2 428/4/2
f 428/4/2 427/4/2 429/4/2
f 430/4/2 431/4/2 432/4/2
f 432/4/2 431/4/2 433/4/2
f 434/4/2 435/4/2 436/4/2
f 436/4/2 435/4/2 437/4/2
f 438/4/2 439/4/2 441/4/2
f 439/4/2 440/4/2 441/4/2
f 441/4/2 440/4/2 442/4/2
f 443/4/2 444/4/2 445/4/2
f 445/4/2 444/4/2 446/4/2
f 447/4/2 448/4/2 449/4/2
f 449/4/2 448/4/2 450/4/2
f 451/4/2 452/4/2 454/4/2
f 454/4/2 452/4/2 455/4/2
f 453/4/2 454/4/2 458/4/2
f 458/4/2 454/4/2 459/4/2
f 456/4/2 457/4/2 460/4/2
f 457/4/2 458/4/2 460/4/2
f 460/4/2 458/4/2 461/4/2
f 462/4/2 463/4/2 465/4/2
f 465/4/2 463/4/2 466/4/2
f 464/4/2 465/4/2 467/4/2
f 467/4/2 465/4/2 468/4/2
f 469/2/2 470/2/2 471/2/2
f 469/2/2 471/2/2 473/2/2
f 471/2/2 472/2/2 473/2/2
f 473/2/2 472/2/2 474/2/2
f 474/2/2 472/2/2 475/2/2
f 476/4/2 477/4/2 480/4/2
f 480/4/2 477/4/2 481/4/2
f 478/1/2 479/1/2 482/1/2
f 479/4/2 480/4/2 483/4/2
f 482/1/2 479/1/2 483/1/2
f 483/4/2 480/4/2 484/4/2
f 485/3/2 486/3/2 487/3/2
f 487/3/2 486/3/2 488/3/2
f 489/3/2 490/3/2 491/3/2
f 491/3/2 490/3/2 492/3/2
f 493/3/2 494/3/2 495/3/2
f 495/3/2 494/3/2 496/3/2
f 497/2/2 498/2/2 500/2/2
f 499/2/2 500/2/2 501/2/2
f 501/2/2 500/2/2 502/2/2
f 500/2/2 498/2/2 503/2/2
f 502/2/2 500/2/2 503/2/2
f 503/2/2 498/2/2 504/2/2
f 502/2/2 503/2/2 505/2/2
f 505/2/2 503/2/2 506/2/2
f 507/4/2 508/4/2 511/4/2
f 511/4/2 508/4/2 512/4/2
f 509/4/2 510/4/2 515/4/2
f 515/4/2 510/4/2 516/4/2
f 512/4/2 513/4/2 517/4/2
f 517/4/2 513/4/2 518/4/2
f 514/4/2 515/4/2 520/4/2
f 519/4/2 520/4/2 521/4/2
f 520/4/2 515/4/2 522/4/2
f 521/4/2 520/4/2 522/4/2
f 523/3/2 524/3/2 525/3/2
f 525/3/2 524/3/2 526/3/2
f 527/2/2 528/2/2 529/2/2
f 527/2/2 529/2/2 533/2/2
f 529/2/2 530/2/2 533/2/2
f 533/2/2 530/2/2 534/2/2
f 534/2/2 530/2/2 535/2/2
f 531/2/2 532/2/2 537/2/2
f 537/2/2 532/2/2 538/2/2
f 535/2/2 536/2/2 539/2/2
f 534/2/2 535/2/2 539/2/2
f 539/2/2 536/2/2 540/2/2
f 540/2/2 536/2/2 541/2/2
f 541/2/2 542/2/2 543/2/2
f 540/2/2 541/2/2 543/2/2
f 543/2/2 542/2/2 544/2/2
f 544/2/2 542/2/2 545/2/2
f 546/6/2 547/6/2 548/6/2
f 546/6/2 548/6/2 549/6/2
f 549/6/2 548/6/2 550/6/2
f 551/5/2 552/5/2 554/5/2
f 552/4/2 553/4/2 555/4/2
f 554/5/2 552/5/2 555/5/2
f 555/4/2 553/4/2 556/4/2
f 555/3/2 556/3/2 557/3/2
f 557/3/2 556/3/2 558/3/2
f 558/3/2 559/3/2 560/3/2
f 560/3/2 559/3/2 561/3/2
f 562/4/2 563/4/2 565/4/2
f 564/4/2 565/4/2 567/4/2
f 565/4/2 563/4/2 570/4/2
f 567/4/2 565/4/2 570/4/2
f 566/4/2 567/4/2 570/4/2
f 570/4/2 563/4/2 571/4/2
f 568/1/2 569/1/2 572/1/2
f 572/1/2 569/1/2 573/1/2
f 566/4/2 570/4/2 574/4/2
f 574/4/2 570/4/2 575/4/2
f 575/4/2 570/4/2 576/4/2
f 574/3/2 575/3/2 577/3/2
f 577/3/2 575/3/2 578/3/2
f 579/2/2 580/2/2 581/2/2
f 579/2/2 581/2/2 585/2/2
f 581/2/2 582/2/2 585/2/2
f 585/2/2 582/2/2 586/2/2
f 586/2/2 582/2/2 587/2/2
f 583/2/2 584/2/2 589/2/2
f 589/2/2 584/2/2 590/2/2
f 587/2/2 588/2/2 591/2/2
f 586/2/2 587/2/2 591/2/2
f 591/2/2 588/2/2 592/2/2
f 592/2/2 588/2/2 593/2/2
f 593/2/2 594/2/2 595/2/2
f 592/2/2 593/2/2 595/2/2
f 595/2/2 594/2/2 596/2/2
f 596/2/2 594/2/2 597/2/2
f 596/1/2 597/1/2 601/1/2
f 601/1/2 597/1/2 602/1/2
f 598/4/2 599/4/2 603/4/2
f 603/4/2 599/4/2 604/4/2
f 600/1/2 601/1/2 606/1/2
f 606/1/2 601/1/2 607/1/2
f 604/4/2 605/4/2 608/4/2
f 608/4/2 605/4/2 609/4/2
f 610/6/2 611/6/2 612/6/2
f 610/6/2 612/6/2 615/6/2
f 613/3/2 614/3/2 615/3/2
f 612/3/2 613/3/2 615/3/2
f 615/3/2 614/3/2 616/3/2
f 610/6/2 615/6/2 617/6/2
f 617/6/2 615/6/2 618/6/2
f 619/3/2 620/3/2 622/3/2
f 620/4/2 621/4/2 623/4/2
f 622/3/2 620/3/2 623/3/2
f 623/4/2 621/4/2 624/4/2
f 623/3/2 624/3/2 625/3/2
f 625/3/2 624/3/2 626/3/2
f 627/2/2 628/2/2 630/2/2
f 629/2/2 630/2/2 631/2/2
f 631/2/2 630/2/2 632/2/2
f 630/2/2 628/2/2 633/2/2
f 632/2/2 630/2/2 633/2/2
f 633/2/2 628/2/2 634/2/2
f 632/2/2 633/2/2 635/2/2
f 635/2/2 633/2/2 636/2/2
f 637/4/2 638/4/2 640/4/2
f 640/4/2 638/4/2 641/4/2
f 639/4/2 640/4/2 644/4/2
f 641/4/2 642/4/2 644/4/2
f 640/4/2 641/4/2 644/4/2
f 644/4/2 642/4/2 645/4/2
f 644/4/2 645/4/2 647/4/2
f 645/4/2 646/4/2 647/4/2
f 643/4/2 644/4/2 647/4/2
f 647/4/2 646/4/2 648/4/2
f 643/4/2 647/4/2 649/4/2
f 649/4/2 647/4/2 650/4/2
f 650/4/2 647/4/2 651/4/2
f 651/4/2 647/4/2 652/4/2
f 648/4/2 646/4/2 653/4/2
f 653/4/2 646/4/2 654/4/2
f 650/4/2 651/4/2 655/4/2
f 655/4/2 651/4/2 656/4/2
f 656/4/2 651/4/2 658/4/2
f 658/4/2 651/4/2 659/4/2
f 657/3/2 658/3/2 661/3/2
f 659/3/2 660/3/2 661/3/2
f 658/3/2 659/3/2 661/3/2
f 661/3/2 660/3/2 662/3/2
f 662/3/2 660/3/2 663/3/2
f 663/3/2 664/3/2 665/3/2
f 665/3/2 664/3/2 666/3/2
f 667/3/2 668/3/2 669/3/2
f 669/3/2 668/3/2 670/3/2
f 673/4/2 674/4/2 675/4/2
f 675/4/2 674/4/2 676/4/2
f 671/4/2 672/4/2 677/4/2
f 677/4/2 672/4/2 678/4/2
f 679/4/2 680/4/2 681/4/2
f 681/4/2 680/4/2 682/4/2
f 679/4/2 681/4/2 684/4/2
f 684/4/2 681/4/2 685/4/2
f 683/4/2 684/4/2 686/4/2
f 684/4/2 685/4/2 686/4/2
f 686/4/2 685/4/2 687/4/2
f 687/4/2 685/4/2 688/4/2
f 689/3/2 690/3/2 691/3/2
f 691/3/2 690/3/2 692/3/2
f 692/3/2 693/3/2 696/3/2
f 696/3/2 693/3/2 697/3/2
f 694/3/2 695/3/2 698/3/2
f 698/3/2 695/3/2 699/3/2
f 700/2/2 701/2/2 702/2/2
f 700/2/2 702/2/2 704/2/2
f 702/2/2 703/2/2 704/2/2
f 704/2/2 703/2/2 705/2/2
f 705/2/2 703/2/2 706/2/2
f 706/2/2 703/2/2 707/2/2
f 707/2/2 703/2/2 708/2/2
f 708/2/2 703/2/2 709/2/2
f 710/4/2 711/4/2 712/4/2
f 712/4/2 711/4/2 713/4/2
f 714/3/2 715/3/2 716/3/2
f 716/3/2 715/3/2 717/3/2
f 718/4/2 719/4/2 720/4/2
f 720/4/2 719/4/2 721/4/2
f 722/4/2 723/4/2 724/4/2
f 724/4/2 723/4/2 725/4/2
f 726/4/2 727/4/2 728/4/2
f 728/4/2 727/4/2 729/4/2
f 730/4/2 731/4/2 732/4/2
f 732/4/2 731/4/2 733/4/2
f 734/4/2 735/4/2 737/4/2
f 737/4/2 735/4/2 738/4/2
f 736/4/2 737/4/2 738/4/2
f 738/4/2 735/4/2 739/4/2
f 736/4/2 738/4/2 741/4/2
f 740/4/2 741/4/2 742/4/2
f 741/4/2 738/4/2 743/4/2
f 742/4/2 741/4/2 743/4/2
f 743/4/2 738/4/2 744/4/2
f 745/4/2 746/4/2 747/4/2
f 747/4/2 746/4/2 748/4/2
f 749/4/2 750/4/2 751/4/2
f 751/4/2 750/4/2 752/4/2
f 753/2/2 754/2/2 756/2/2
f 754/2/2 755/2/2 756/2/2
f 756/2/2 755/2/2 757/2/2
f 758/4/2 759/4/2 760/4/2
f 760/4/2 759/4/2 761/4/2
f 762/4/2 763/4/2 764/4/2
f 764/4/2 763/4/2 765/4/2
f 766/4/2 767/4/2 768/4/2
f 768/4/2 767/4/2 769/4/2
f 769/4/2 767/4/2 770/4/2
f 768/2/2 769/2/2 772/2/2
f 771/2/2 772/2/2 773/2/2
f 772/2/2 769/2/2 774/2/2
f 773/2/2 772/2/2 774/2/2
f 775/4/2 776/4/2 778/4/2
f 778/4/2 776/4/2 779/4/2
f 779/4/2 776/4/2 780/4/2
f 777/4/2 778/4/2 781/4/2
f 778/4/2 779/4/2 781/4/2
f 781/4/2 779/4/2 782/4/2
f 785/2/3 784/2/3 783/2/3
f 786/2/3 784/2/3 785/2/3
f 789/2/3 788/2/3 787/2/3
f 790/2/3 788/2/3 789/2/3
f 795/2/3 792/2/3 791/2/3
f 796/2/3 792/2/3 795/2/3
f 797/6/3 794/6/3 793/6/3
f 798/6/3 794/6/3 797/6/3
f 799/6/3 794/6/3 798/6/3
f 804/1/3 800/1/3 799/1/3
f 804/1/3 799/1/3 798/1/3
f 805/1/3 800/1/3 804/1/3
f 806/1/3 800/1/3 805/1/3
f 807/2/3 802/2/3 801/2/3
f 808/2/3 802/2/3 807/2/3
f 809/6/3 804/6/3 803/6/3
f 809/6/3 805/6/3 804/6/3
f 810/6/3 805/6/3 809/6/3
f 813/2/3 812/2/3 811/2/3
f 814/2/3 812/2/3 813/2/3
f 822/4/3 816/4/3 815/4/3
f 823/4/3 816/4/3 822/4/3
f 824/4/3 816/4/3 823/4/3
f 825/3/3 818/3/3 817/3/3
f 826/3/3 818/3/3 825/3/3
f 827/3/3 818/3/3 826/3/3
f 828/3/3 818/3/3 827/3/3
f 829/2/3 820/2/3 819/2/3
f 830/2/3 820/2/3 829/2/3
f 831/1/3 822/1/3 821/1/3
f 831/1/3 823/1/3 822/1/3
f 832/1/3 823/1/3 831/1/3
f 835/3/3 827/3/3 826/3/3
f 836/5/3 828/5/3 827/5/3
f 836/3/3 827/3/3 835/3/3
f 837/5/3 828/5/3 836/5/3
f 838/5/3 828/5/3 837/5/3
f 841/4/3 832/4/3 831/4/3
f 842/4/3 832/4/3 841/4/3
f 843/3/3 834/3/3 833/3/3
f 844/3/3 834/3/3 843/3/3
f 846/3/3 837/3/3 836/3/3
f 847/3/3 837/3/3 846/3/3
f 849/2/3 840/2/3 839/2/3
f 850/2/3 840/2/3 849/2/3
f 851/1/3 842/1/3 841/1/3
f 852/1/3 842/1/3 851/1/3
f 853/1/3 842/1/3 852/1/3
f 856/3/3 846/3/3 845/3/3
f 857/5/3 848/5/3 847/5/3
f 857/5/3 847/5/3 846/5/3
f 857/3/3 846/3/3 856/3/3
f 858/5/3 848/5/3 857/5/3
f 859/4/3 854/4/3 853/4/3
f 859/4/3 853/4/3 852/4/3
f 860/4/3 854/4/3 859/4/3
f 861/3/3 856/3/3 855/3/3
f 861/3/3 858/3/3 857/3/3
f 861/3/3 857/3/3 856/3/3
f 862/3/3 858/3/3 861/3/3
f 865/2/3 864/2/3 863/2/3
f 866/2/3 864/2/3 865/2/3
f 869/2/3 868/2/3 867/2/3
f 870/2/3 868/2/3 869/2/3
f 875/2/3 874/2/3 873/2/3
f 876/2/3 874/2/3 875/2/3
f 877/4/3 872/4/3 871/4/3
f 878/4/3 872/4/3 877/4/3
f 884/4/3 880/4/3 879/4/3
f 885/4/3 880/4/3 884/4/3
f 887/4/3 882/4/3 881/4/3
f 888/4/3 882/4/3 887/4/3
f 891/1/3 884/1/3 883/1/3
f 892/1/3 884/1/3 891/1/3
f 893/4/3 887/4/3 886/4/3
f 894/3/3 890/3/3 889/3/3
f 895/3/3 890/3/3 894/3/3
f 896/4/3 892/4/3 891/4/3
f 897/4/3 892/4/3 896/4/3
f 898/4/3 887/4/3 893/4/3
f 901/1/3 897/1/3 896/1/3
f 902/1/3 897/1/3 901/1/3
f 904/4/3 887/4/3 898/4/3
f 905/4/3 887/4/3 904/4/3
f 907/3/3 900/3/3 899/3/3
f 908/3/3 900/3/3 907/3/3
f 909/4/3 903/4/3 902/4/3
f 910/4/3 903/4/3 909/4/3
f 911/4/3 906/4/3 905/4/3
f 912/4/3 906/4/3 911/4/3
f 917/4/3 914/4/3 913/4/3
f 918/4/3 914/4/3 917/4/3
f 919/2/3 916/2/3 915/2/3
f 920/2/3 916/2/3 919/2/3
f 923/2/3 922/2/3 921/2/3
f 924/2/3 922/2/3 923/2/3
f 927/4/3 926/4/3 925/4/3
f 930/4/3 927/4/3 925/4/3
f 930/4/3 928/4/3 927/4/3
f 931/4/3 928/4/3 930/4/3
f 932/2/3 929/2/3 928/2/3
f 932/4/3 928/4/3 931/4/3
f 933/2/3 929/2/3 932/2/3
f 934/2/3 929/2/3 933/2/3
f 935/1/3 932/1/3 931/1/3
f 936/4/3 933/4/3 932/4/3
f 936/1/3 932/1/3 935/1/3
f 937/2/3 934/2/3 933/2/3
f 937/4/3 933/4/3 936/4/3
f 938/2/3 934/2/3 937/2/3
f 939/4/3 936/4/3 935/4/3
f 940/4/3 936/4/3 939/4/3
f 941/2/3 938/2/3 937/2/3
f 942/2/3 938/2/3 941/2/3
f 943/1/3 940/1/3 939/1/3
f 944/1/3 940/1/3 943/1/3
f 945/4/3 944/4/3 943/4/3
f 946/4/3 944/4/3 945/4/3
f 947/1/3 946/1/3 945/1/3
f 948/1/3 946/1/3 947/1/3
f 949/4/3 948/4/3 947/4/3
f 950/4/3 949/4/3 947/4/3
f 951/4/3 949/4/3 950/4/3
f 954/2/3 953/2/3 952/2/3
f 955/2/3 953/2/3 954/2/3
f 959/4/3 956/4/3 955/4/3
f 959/4/3 955/4/3 954/4/3
f 964/3/3 958/3/3 957/3/3
f 965/3/3 958/3/3 964/3/3
f 967/4/3 959/4/3 954/4/3
f 967/4/3 960/4/3 959/4/3
f 968/4/3 960/4/3 967/4/3
f 969/4/3 960/4/3 968/4/3
f 970/4/3 960/4/3 969/4/3
f 972/4/3 962/4/3 961/4/3
f 973/4/3 962/4/3 972/4/3
f 975/3/3 964/3/3 963/3/3
f 976/3/3 964/3/3 975/3/3
f 977/2/3 967/2/3 966/2/3
f 978/4/3 968/4/3 967/4/3
f 978/2/3 967/2/3 977/2/3
f 979/4/3 968/4/3 978/4/3
f 983/3/3 975/3/3 974/3/3
f 984/3/3 975/3/3 983/3/3
f 986/4/3 979/4/3 978/4/3
f 986/4/3 980/4/3 979/4/3
f 987/4/3 980/4/3 986/4/3
f 988/4/3 980/4/3 987/4/3
f 989/3/3 982/3/3 981/3/3
f 989/3/3 983/3/3 982/3/3
f 990/3/3 983/3/3 989/3/3
f 991/3/3 983/3/3 990/3/3
f 993/2/3 986/2/3 985/2/3
f 994/4/3 987/4/3 986/4/3
f 994/2/3 986/2/3 993/2/3
f 995/4/3 987/4/3 994/4/3
f 998/4/3 972/4/3 971/4/3
f 999/4/3 972/4/3 998/4/3
f 1001/3/3 992/3/3 991/3/3
f 1002/3/3 992/3/3 1001/3/3
f 1004/4/3 997/4/3 996/4/3
f 1004/4/3 995/4/3 994/4/3
f 1004/4/3 996/4/3 995/4/3
f 1005/4/3 997/4/3 1004/4/3
f 1006/4/3 1000/4/3 999/4/3
f 1007/4/3 1000/4/3 1006/4/3
f 1008/3/3 1003/3/3 1002/3/3
f 1009/3/3 1003/3/3 1008/3/3
f 1011/4/3 1004/4/3 994/4/3
f 1012/4/3 1004/4/3 1011/4/3
f 1013/4/3 1004/4/3 1012/4/3
f 1014/3/3 1010/3/3 1009/3/3
f 1015/3/3 1010/3/3 1014/3/3
f 1016/2/3 1012/2/3 1011/2/3
f 1017/2/3 1012/2/3 1016/2/3
f 1020/4/3 1019/4/3 1018/4/3
f 1021/4/3 1020/4/3 1018/4/3
f 1022/4/3 1020/4/3 1021/4/3
f 1023/1/3 1022/1/3 1021/1/3
f 1024/1/3 1022/1/3 1023/1/3
f 1025/4/3 1024/4/3 1023/4/3
f 1026/4/3 1024/4/3 1025/4/3
f 1027/1/3 1026/1/3 1025/1/3
f 1028/1/3 1026/1/3 1027/1/3
f 1031/4/3 1028/4/3 1027/4/3
f 1032/4/3 1028/4/3 1031/4/3
f 1033/2/3 1030/2/3 1029/2/3
f 1034/2/3 1030/2/3 1033/2/3
f 1036/1/3 1032/1/3 1031/1/3
f 1037/4/3 1033/4/3 1032/4/3
f 1037/1/3 1032/1/3 1036/1/3
f 1038/2/3 1034/2/3 1033/2/3
f 1038/4/3 1033/4/3 1037/4/3
f 1039/2/3 1034/2/3 1038/2/3
f 1040/4/3 1036/4/3 1035/4/3
f 1040/4/3 1037/4/3 1036/4/3
f 1041/2/3 1039/2/3 1038/2/3
f 1041/4/3 1037/4/3 1040/4/3
f 1041/2/3 1038/2/3 1037/2/3
f 1042/2/3 1039/2/3 1041/2/3
f 1043/4/3 1040/4/3 1035/4/3
f 1044/4/3 1040/4/3 1043/4/3
f 1047/4/3 1046/4/3 1045/4/3
f 1048/4/3 1046/4/3 1047/4/3
f 1049/4/3 1046/4/3 1048/4/3
f 1050/4/3 1046/4/3 1049/4/3
f 1052/1/3 1050/1/3 1049/1/3
f 1052/1/3 1051/1/3 1050/1/3
f 1053/1/3 1051/1/3 1052/1/3
f 1054/4/3 1053/4/3 1052/4/3
f 1055/4/3 1053/4/3 1054/4/3
f 1056/1/3 1055/1/3 1054/1/3
f 1057/1/3 1055/1/3 1056/1/3
f 1058/1/3 1055/1/3 1057/1/3
f 1059/4/3 1058/4/3 1057/4/3
f 1060/4/3 1058/4/3 1059/4/3
f 1061/1/3 1060/1/3 1059/1/3
f 1062/1/3 1060/1/3 1061/1/3
f 1063/4/3 1062/4/3 1061/4/3
f 1064/4/3 1062/4/3 1063/4/3
f 1065/1/3 1064/1/3 1063/1/3
f 1066/1/3 1064/1/3 1065/1/3
f 1069/4/3 1066/4/3 1065/4/3
f 1070/4/3 1066/4/3 1069/4/3
f 1075/2/3 1068/2/3 1067/2/3
f 1076/2/3 1068/2/3 1075/2/3
f 1080/3/3 1072/3/3 1071/3/3
f 1081/3/3 1072/3/3 1080/3/3
f 1082/3/3 1072/3/3 1081/3/3
f 1083/4/3 1078/4/3 1077/4/3
f 1084/4/3 1078/4/3 1083/4/3
f 1085/3/3 1080/3/3 1079/3/3
f 1086/3/3 1080/3/3 1085/3/3
f 1087/2/3 1074/2/3 1073/2/3
f 1088/2/3 1074/2/3 1087/2/3
f 1095/2/3 1090/2/3 1089/2/3
f 1096/2/3 1090/2/3 1095/2/3
f 1099/4/3 1092/4/3 1091/4/3
f 1100/4/3 1092/4/3 1099/4/3
f 1101/3/3 1094/3/3 1093/3/3
f 1102/3/3 1094/3/3 1101/3/3
f 1105/2/3 1098/2/3 1097/2/3
f 1106/2/3 1098/2/3 1105/2/3
f 1109/3/3 1104/3/3 1103/3/3
f 1109/3/3 1103/3/3 1102/3/3
f 1110/3/3 1104/3/3 1109/3/3
f 1111/4/3 1108/4/3 1107/4/3
f 1112/4/3 1108/4/3 1111/4/3
f 1113/1/3 1112/1/3 1111/1/3
f 1114/1/3 1112/1/3 1113/1/3
f 1115/4/3 1114/4/3 1113/4/3
f 1116/4/3 1114/4/3 1115/4/3
f 1117/1/3 1116/1/3 1115/1/3
f 1118/1/3 1116/1/3 1117/1/3
f 1120/4/3 1118/4/3 1117/4/3
f 1121/4/3 1118/4/3 1120/4/3
f 1122/1/3 1120/1/3 1119/1/3
f 1122/1/3 1121/1/3 1120/1/3
f 1123/1/3 1121/1/3 1122/1/3
f 1124/4/3 1123/4/3 1122/4/3
f 1125/4/3 1123/4/3 1124/4/3
f 1126/1/3 1125/1/3 1124/1/3
f 1127/1/3 1125/1/3 1126/1/3
f 1128/1/3 1125/1/3 1127/1/3
f 1130/4/3 1127/4/3 1126/4/3
f 1131/4/3 1130/4/3 1129/4/3
f 1132/4/3 1127/4/3 1130/4/3
f 1132/4/3 1130/4/3 1131/4/3
f 1135/4/3 1134/4/3 1133/4/3
f 1136/4/3 1134/4/3 1135/4/3
f 1137/1/3 1136/1/3 1135/1/3
f 1138/1/3 1136/1/3 1137/1/3
f 1139/4/3 1138/4/3 1137/4/3
f 1140/4/3 1138/4/3 1139/4/3
f 1141/1/3 1140/1/3 1139/1/3
f 1142/1/3 1140/1/3 1141/1/3
f 1144/4/3 1142/4/3 1141/4/3
f 1144/4/3 1143/4/3 1142/4/3
f 1145/4/3 1143/4/3 1144/4/3
f 1146/4/3 1143/4/3 1145/4/3
f 1147/1/3 1146/1/3 1145/1/3
f 1148/1/3 1146/1/3 1147/1/3
f 1149/4/3 1148/4/3 1147/4/3
f 1150/4/3 1148/4/3 1149/4/3
f 1151/1/3 1150/1/3 1149/1/3
f 1152/1/3 1150/1/3 1151/1/3
f 1153/4/3 1152/4/3 1151/4/3
f 1154/4/3 1152/4/3 1153/4/3
f 1155/4/3 1152/4/3 1154/4/3
f 1158/1/3 1154/1/3 1153/1/3
f 1159/1/3 1154/1/3 1158/1/3
f 1162/4/3 1157/4/3 1156/4/3
f 1163/4/3 1157/4/3 1162/4/3
f 1165/3/3 1161/3/3 1160/3/3
f 1166/3/3 1161/3/3 1165/3/3
f 1167/3/3 1161/3/3 1166/3/3
f 1168/3/3 1165/3/3 1164/3/3
f 1168/3/3 1166/3/3 1165/3/3
f 1169/3/3 1166/3/3 1168/3/3
f 1170/3/3 1166/3/3 1169/3/3
f 1176/3/3 1172/3/3 1171/3/3
f 1176/3/3 1173/3/3 1172/3/3
f 1177/3/3 1173/3/3 1176/3/3
f 1178/3/3 1173/3/3 1177/3/3
f 1180/4/3 1175/4/3 1174/4/3
f 1181/4/3 1175/4/3 1180/4/3
f 1184/3/3 1178/3/3 1177/3/3
f 1184/3/3 1179/3/3 1178/3/3
f 1185/3/3 1179/3/3 1184/3/3
f 1186/1/3 1183/1/3 1182/1/3
f 1187/1/3 1183/1/3 1186/1/3
f 1189/4/3 1187/4/3 1186/4/3
f 1189/4/3 1188/4/3 1187/4/3
f 1190/4/3 1188/4/3 1189/4/3
f 1191/1/3 1190/1/3 1189/1/3
f 1192/1/3 1190/1/3 1191/1/3
f 1193/4/3 1192/4/3 1191/4/3
f 1194/4/3 1192/4/3 1193/4/3
f 1196/1/3 1194/1/3 1193/1/3
f 1197/1/3 1194/1/3 1196/1/3
f 1198/4/3 1196/4/3 1195/4/3
f 1198/4/3 1197/4/3 1196/4/3
f 1199/4/3 1197/4/3 1198/4/3
f 1200/4/3 1197/4/3 1199/4/3
f 1201/1/3 1199/1/3 1198/1/3
f 1202/1/3 1199/1/3 1201/1/3
f 1203/4/3 1202/4/3 1201/4/3
f 1204/4/3 1202/4/3 1203/4/3
f 1205/1/3 1204/1/3 1203/1/3
f 1206/1/3 1204/1/3 1205/1/3
f 1207/4/3 1206/4/3 1205/4/3
f 1208/4/3 1206/4/3 1207/4/3
f 1212/4/3 1210/4/3 1209/4/3
f 1213/4/3 1210/4/3 1212/4/3
f 1214/4/3 1212/4/3 1211/4/3
f 1214/4/3 1213/4/3 1212/4/3
f 1215/4/3 1213/4/3 1214/4/3
f 1217/1/3 1215/1/3 1214/1/3
f 1217/1/3 1216/1/3 1215/1/3
f 1218/1/3 1216/1/3 1217/1/3
f 1220/4/3 1218/4/3 1217/4/3
f 1221/4/3 1218/4/3 1220/4/3
f 1222/4/3 1218/4/3 1221/4/3
f 1223/4/3 1220/4/3 1219/4/3
f 1223/4/3 1221/4/3 1220/4/3
f 1224/4/3 1221/4/3 1223/4/3
f 1225/1/3 1222/1/3 1221/1/3
f 1225/4/3 1221/4/3 1224/4/3
f 1226/1/3 1222/1/3 1225/1/3
f 1227/4/3 1225/4/3 1224/4/3
f 1227/4/3 1226/4/3 1225/4/3
f 1228/4/3 1226/4/3 1227/4/3
f 1229/4/3 1227/4/3 1224/4/3
f 1230/1/3 1228/1/3 1227/1/3
f 1230/4/3 1227/4/3 1229/4/3
f 1231/1/3 1228/1/3 1230/1/3
f 1235/4/3 1233/4/3 1232/4/3
f 1235/1/3 1234/1/3 1233/1/3
f 1236/1/3 1234/1/3 1235/1/3
f 1238/4/3 1235/4/3 1232/4/3
f 1238/4/3 1236/4/3 1235/4/3
f 1239/4/3 1236/4/3 1238/4/3
f 1240/4/3 1236/4/3 1239/4/3
f 1241/4/3 1238/4/3 1237/4/3
f 1241/4/3 1239/4/3 1238/4/3
f 1242/4/3 1239/4/3 1241/4/3
f 1243/1/3 1240/1/3 1239/1/3
f 1243/4/3 1239/4/3 1242/4/3
f 1244/1/3 1240/1/3 1243/1/3
f 1245/4/3 1243/4/3 1242/4/3
f 1245/4/3 1244/4/3 1243/4/3
f 1246/4/3 1244/4/3 1245/4/3
f 1247/1/3 1246/1/3 1245/1/3
f 1248/1/3 1246/1/3 1247/1/3
f 1249/1/3 1246/1/3 1248/1/3
f 1250/4/3 1248/4/3 1247/4/3
f 1251/4/3 1248/4/3 1250/4/3
f 1252/4/3 1248/4/3 1251/4/3
f 1253/4/3 1252/4/3 1251/4/3
f 1254/4/3 1252/4/3 1253/4/3
f 1257/4/3 1256/4/3 1255/4/3
f 1258/4/3 1257/4/3 1255/4/3
f 1259/4/3 1257/4/3 1258/4/3
f 1260/4/3 1257/4/3 1259/4/3
f 1261/4/3 1260/4/3 1259/4/3
f 1262/4/3 1260/4/3 1261/4/3
f 1265/2/3 1264/2/3 1263/2/3
f 1266/2/3 1264/2/3 1265/2/3
f 1269/2/3 1268/2/3 1267/2/3
f 1270/2/3 1268/2/3 1269/2/3
f 1274/4/3 1272/4/3 1271/4/3
f 1275/4/3 1272/4/3 1274/4/3
f 1276/4/3 1274/4/3 1273/4/3
f 1276/4/3 1275/4/3 1274/4/3
f 1277/4/3 1276/4/3 1273/4/3
f 1278/4/3 1276/4/3 1277/4/3
f 1281/4/3 1280/4/3 1279/4/3
f 1282/4/3 1280/4/3 1281/4/3
f 1285/4/3 1284/4/3 1283/4/3
f 1286/4/3 1284/4/3 1285/4/3
f 1287/2/4 1288/2/4 1289/2/4
f 1289/2/4 1288/2/4 1290/2/4
f 1291/2/4 1292/2/4 1293/2/4
f 1293/2/4 1292/2/4 1294/2/4
f 1295/2/4 1296/2/4 1299/2/4
f 1299/2/4 1296/2/4 1300/2/4
f 1297/6/4 1298/6/4 1301/6/4
f 1301/6/4 1298/6/4 1302/6/4
f 1303/2/4 1304/2/4 1307/2/4
f 1307/2/4 1304/2/4 1308/2/4
f 1305/6/4 1306/6/4 1309/6/4
f 1309/6/4 1306/6/4 1310/6/4
f 1311/2/4 1312/2/4 1313/2/4
f 1313/2/4 1312/2/4 1314/2/4
f 1315/2/4 1316/2/4 1317/2/4
f 1317/2/4 1316/2/4 1318/2/4
f 1319/2/4 1320/2/4 1321/2/4
f 1321/2/4 1320/2/4 1322/2/4
f 1323/2/4 1324/2/4 1325/2/4
f 1325/2/4 1324/2/4 1326/2/4
f 1327/2/4 1328/2/4 1329/2/4
f 1329/2/4 1328/2/4 1330/2/4
f 1330/2/4 1328/2/4 1331/2/4
f 1331/2/4 1328/2/4 1332/2/4
f 1330/2/4 1331/2/4 1333/2/4
f 1329/4/4 1330/4/4 1335/4/4
f 1333/2/4 1334/2/4 1335/2/4
f 1330/2/4 1333/2/4 1335/2/4
f 1335/2/4 1334/2/4 1336/2/4
f 1329/4/4 1335/4/4 1337/4/4
f 1337/4/4 1335/4/4 1338/4/4
f 1339/2/4 1340/2/4 1341/2/4
f 1341/2/4 1340/2/4 1342/2/4
f 1343/2/4 1344/2/4 1345/2/4
f 1345/2/4 1344/2/4 1346/2/4
f 1347/4/4 1348/4/4 1349/4/4
f 1349/2/4 1350/2/4 1351/2/4
f 1351/2/4 1350/2/4 1352/2/4
f 1347/4/4 1349/4/4 1353/4/4
f 1349/2/4 1351/2/4 1354/2/4
f 1353/4/4 1349/4/4 1354/4/4
f 1354/2/4 1351/2/4 1355/2/4
f 1353/2/4 1354/2/4 1357/2/4
f 1355/2/4 1356/2/4 1357/2/4
f 1354/2/4 1355/2/4 1357/2/4
f 1357/2/4 1356/2/4 1358/2/4
f 1359/4/4 1360/4/4 1361/4/4
f 1359/4/4 1361/4/4 1363/4/4
f 1361/4/4 1362/4/4 1363/4/4
f 1363/4/4 1362/4/4 1364/4/4
f 1364/4/4 1362/4/4 1366/4/4
f 1366/4/4 1362/4/4 1367/4/4
f 1365/4/4 1366/4/4 1370/4/4
f 1370/4/4 1366/4/4 1371/4/4
f 1368/2/4 1369/2/4 1374/2/4
f 1374/2/4 1369/2/4 1375/2/4
f 1372/3/4 1373/3/4 1377/3/4
f 1377/3/4 1373/3/4 1378/3/4
f 1368/2/4 1374/2/4 1379/2/4
f 1379/2/4 1374/2/4 1380/2/4
f 1376/3/4 1377/3/4 1382/3/4
f 1382/3/4 1377/3/4 1383/3/4
f 1378/3/4 1373/3/4 1384/3/4
f 1384/3/4 1373/3/4 1385/3/4
f 1381/3/4 1382/3/4 1387/3/4
f 1386/3/4 1387/3/4 1388/3/4
f 1387/3/4 1382/3/4 1389/3/4
f 1388/3/4 1387/3/4 1389/3/4
f 1389/3/4 1382/3/4 1390/3/4
f 1391/3/4 1392/3/4 1394/3/4
f 1392/3/4 1393/3/4 1394/3/4
f 1394/3/4 1393/3/4 1395/3/4
f 1395/3/4 1393/3/4 1398/3/4
f 1398/3/4 1393/3/4 1399/3/4
f 1396/2/4 1397/2/4 1403/2/4
f 1399/3/4 1400/3/4 1405/3/4
f 1405/3/4 1400/3/4 1406/3/4
f 1401/3/4 1402/3/4 1407/3/4
f 1403/2/4 1404/2/4 1408/2/4
f 1396/2/4 1403/2/4 1408/2/4
f 1408/2/4 1404/2/4 1409/2/4
f 1406/3/4 1407/3/4 1412/3/4
f 1407/3/4 1402/3/4 1413/3/4
f 1412/3/4 1407/3/4 1413/3/4
f 1410/4/4 1411/4/4 1414/4/4
f 1414/4/4 1411/4/4 1415/4/4
f 1415/4/4 1416/4/4 1418/4/4
f 1418/4/4 1416/4/4 1419/4/4
f 1417/4/4 1418/4/4 1419/4/4
f 1419/4/4 1416/4/4 1420/4/4
f 1417/4/4 1419/4/4 1421/4/4
f 1421/4/4 1419/4/4 1422/4/4
f 1423/4/4 1424/4/4 1425/4/4
f 1425/4/4 1424/4/4 1426/4/4
f 1426/4/4 1424/4/4 1427/4/4
f 1427/4/4 1424/4/4 1428/4/4
f 1428/4/4 1424/4/4 1429/4/4
f 1429/4/4 1430/4/4 1431/4/4
f 1428/4/4 1429/4/4 1431/4/4
f 1431/4/4 1430/4/4 1432/4/4
f 1432/4/4 1430/4/4 1434/4/4
f 1434/4/4 1430/4/4 1435/4/4
f 1433/4/4 1434/4/4 1436/4/4
f 1436/4/4 1434/4/4 1437/4/4
f 1438/4/4 1439/4/4 1442/4/4
f 1442/4/4 1439/4/4 1443/4/4
f 1443/4/4 1439/4/4 1444/4/4
f 1440/3/4 1441/3/4 1447/3/4
f 1444/4/4 1445/4/4 1449/4/4
f 1443/4/4 1444/4/4 1449/4/4
f 1449/4/4 1445/4/4 1450/4/4
f 1450/4/4 1445/4/4 1451/4/4
f 1447/3/4 1441/3/4 1454/3/4
f 1446/3/4 1447/3/4 1454/3/4
f 1454/3/4 1441/3/4 1455/3/4
f 1452/4/4 1453/4/4 1456/4/4
f 1456/4/4 1453/4/4 1457/4/4
f 1446/3/4 1454/3/4 1459/3/4
f 1459/3/4 1454/3/4 1460/3/4
f 1460/3/4 1454/3/4 1461/3/4
f 1458/3/4 1459/3/4 1464/3/4
f 1459/3/4 1460/3/4 1464/3/4
f 1464/3/4 1460/3/4 1465/3/4
f 1465/3/4 1460/3/4 1466/3/4
f 1448/4/4 1449/4/4 1468/4/4
f 1449/4/4 1450/4/4 1468/4/4
f 1468/4/4 1450/4/4 1469/4/4
f 1469/4/4 1450/4/4 1470/4/4
f 1462/4/4 1463/4/4 1472/4/4
f 1472/4/4 1463/4/4 1473/4/4
f 1466/3/4 1467/3/4 1474/3/4
f 1465/3/4 1466/3/4 1474/3/4
f 1470/4/4 1471/4/4 1477/4/4
f 1469/4/4 1470/4/4 1477/4/4
f 1477/4/4 1471/4/4 1478/4/4
f 1478/4/4 1471/4/4 1479/4/4
f 1465/3/4 1474/3/4 1480/3/4
f 1474/3/4 1475/3/4 1480/3/4
f 1480/3/4 1475/3/4 1481/3/4
f 1477/4/4 1478/4/4 1482/4/4
f 1476/4/4 1477/4/4 1482/4/4
f 1482/4/4 1478/4/4 1483/4/4
f 1481/3/4 1475/3/4 1484/3/4
f 1484/3/4 1475/3/4 1485/3/4
f 1486/4/4 1487/4/4 1488/4/4
f 1488/4/4 1487/4/4 1489/4/4
f 1489/4/4 1490/4/4 1492/4/4
f 1491/4/4 1492/4/4 1494/4/4
f 1492/4/4 1490/4/4 1495/4/4
f 1494/4/4 1492/4/4 1495/4/4
f 1495/4/4 1490/4/4 1496/4/4
f 1493/4/4 1494/4/4 1498/4/4
f 1494/4/4 1495/4/4 1498/4/4
f 1497/4/4 1498/4/4 1499/4/4
f 1498/4/4 1495/4/4 1500/4/4
f 1499/4/4 1498/4/4 1500/4/4
f 1501/4/4 1502/4/4 1504/4/4
f 1503/4/4 1504/4/4 1505/4/4
f 1505/4/4 1504/4/4 1506/4/4
f 1504/4/4 1502/4/4 1507/4/4
f 1506/4/4 1504/4/4 1507/4/4
f 1507/4/4 1502/4/4 1508/4/4
f 1508/4/4 1509/4/4 1511/4/4
f 1507/4/4 1508/4/4 1511/4/4
f 1510/4/4 1511/4/4 1513/4/4
f 1513/4/4 1511/4/4 1514/4/4
f 1511/4/4 1509/4/4 1515/4/4
f 1514/4/4 1511/4/4 1515/4/4
f 1513/4/4 1514/4/4 1516/4/4
f 1512/4/4 1513/4/4 1516/4/4
f 1516/4/4 1514/4/4 1517/4/4
f 1517/4/4 1514/4/4 1518/4/4
f 1515/4/4 1509/4/4 1519/4/4
f 1519/4/4 1509/4/4 1520/4/4
f 1520/4/4 1509/4/4 1521/4/4
f 1517/4/4 1518/4/4 1522/4/4
f 1519/4/4 1520/4/4 1522/4/4
f 1518/4/4 1519/4/4 1522/4/4
f 1522/4/4 1520/4/4 1523/4/4
f 1517/4/4 1522/4/4 1525/4/4
f 1525/4/4 1522/4/4 1526/4/4
f 1523/4/4 1520/4/4 1527/4/4
f 1527/4/4 1520/4/4 1528/4/4
f 1525/4/4 1526/4/4 1533/4/4
f 1524/4/4 1525/4/4 1533/4/4
f 1526/4/4 1527/4/4 1533/4/4
f 1533/4/4 1527/4/4 1534/4/4
f 1529/2/4 1530/2/4 1535/2/4
f 1535/2/4 1530/2/4 1536/2/4
f 1531/4/4 1532/4/4 1538/4/4
f 1538/4/4 1532/4/4 1539/4/4
f 1534/4/4 1527/4/4 1541/4/4
f 1541/4/4 1527/4/4 1542/4/4
f 1540/4/4 1541/4/4 1543/4/4
f 1543/4/4 1541/4/4 1544/4/4
f 1545/4/4 1546/4/4 1549/4/4
f 1549/4/4 1546/4/4 1550/4/4
f 1537/4/4 1538/4/4 1553/4/4
f 1553/4/4 1538/4/4 1554/4/4
f 1547/4/4 1548/4/4 1556/4/4
f 1556/4/4 1548/4/4 1557/4/4
f 1551/2/4 1552/2/4 1559/2/4
f 1559/2/4 1552/2/4 1560/2/4
f 1554/4/4 1555/4/4 1561/4/4
f 1561/4/4 1555/4/4 1562/4/4
f 1557/4/4 1558/4/4 1564/4/4
f 1563/4/4 1564/4/4 1565/4/4
f 1565/4/4 1564/4/4 1566/4/4
f 1564/4/4 1558/4/4 1567/4/4
f 1566/4/4 1564/4/4 1567/4/4
f 1567/4/4 1558/4/4 1568/4/4
f 1566/4/4 1567/4/4 1570/4/4
f 1568/4/4 1569/4/4 1571/4/4
f 1566/4/4 1570/4/4 1573/4/4
f 1570/4/4 1571/4/4 1573/4/4
f 1573/4/4 1571/4/4 1574/4/4
f 1571/4/4 1569/4/4 1575/4/4
f 1574/4/4 1571/4/4 1575/4/4
f 1575/4/4 1569/4/4 1576/4/4
f 1573/4/4 1574/4/4 1578/4/4
f 1572/4/4 1573/4/4 1578/4/4
f 1578/4/4 1574/4/4 1579/4/4
f 1579/4/4 1574/4/4 1580/4/4
f 1576/4/4 1577/4/4 1581/4/4
f 1575/4/4 1576/4/4 1581/4/4
f 1579/4/4 1580/4/4 1582/4/4
f 1580/4/4 1581/4/4 1582/4/4
f 1581/4/4 1577/4/4 1583/4/4
f 1582/4/4 1581/4/4 1583/4/4
f 1583/4/4 1577/4/4 1585/4/4
f 1585/4/4 1577/4/4 1586/4/4
f 1586/4/4 1577/4/4 1587/4/4
f 1584/4/4 1585/4/4 1588/4/4
f 1585/4/4 1586/4/4 1588/4/4
f 1588/4/4 1586/4/4 1589/4/4
f 1589/4/4 1586/4/4 1590/4/4
f 1590/4/4 1586/4/4 1591/4/4
f 1591/4/4 1586/4/4 1592/4/4
f 1593/4/4 1594/4/4 1596/4/4
f 1596/4/4 1594/4/4 1597/4/4
f 1595/4/4 1596/4/4 1599/4/4
f 1597/4/4 1598/4/4 1599/4/4
f 1596/4/4 1597/4/4 1599/4/4
f 1599/4/4 1598/4/4 1600/4/4
f 1600/4/4 1598/4/4 1601/4/4
f 1601/4/4 1598/4/4 1602/4/4
f 1600/4/4 1601/4/4 1603/4/4
f 1603/4/4 1601/4/4 1604/4/4
f 1605/4/4 1606/4/4 1607/4/4
f 1607/4/4 1606/4/4 1608/4/4
f 1609/4/4 1610/4/4 1611/4/4
f 1611/4/4 1610/4/4 1612/4/4
f 1613/2/4 1614/2/4 1617/2/4
f 1617/2/4 1614/2/4 1618/2/4
f 1615/4/4 1616/4/4 1620/4/4
f 1620/4/4 1616/4/4 1621/4/4
f 1621/4/4 1616/4/4 1622/4/4
f 1619/4/4 1620/4/4 1623/4/4
f 1620/4/4 1621/4/4 1623/4/4
f 1619/4/4 1623/4/4 1625/4/4
f 1623/4/4 1624/4/4 1625/4/4
f 1625/4/4 1624/4/4 1626/4/4
f 1619/4/4 1625/4/4 1629/4/4
f 1629/4/4 1625/4/4 1630/4/4
f 1630/4/4 1625/4/4 1631/4/4
f 1627/2/4 1628/2/4 1633/2/4
f 1633/2/4 1628/2/4 1634/2/4
f 1631/4/4 1632/4/4 1635/4/4
f 1630/4/4 1631/4/4 1635/4/4
f 1635/4/4 1632/4/4 1636/4/4
f 1637/4/4 1638/4/4 1639/4/4
f 1639/4/4 1638/4/4 1640/4/4
f 1641/4/4 1642/4/4 1645/4/4
f 1645/4/4 1642/4/4 1646/4/4
f 1643/4/4 1644/4/4 1648/4/4
f 1648/4/4 1644/4/4 1649/4/4
f 1647/4/4 1648/4/4 1651/4/4
f 1649/4/4 1650/4/4 1651/4/4
f 1648/4/4 1649/4/4 1651/4/4
f 1651/4/4 1650/4/4 1652/4/4
f 1652/4/4 1650/4/4 1653/4/4
f 1653/4/4 1650/4/4 1654/4/4
f 1652/4/4 1653/4/4 1655/4/4
f 1655/4/4 1653/4/4 1656/4/4
f 1657/4/4 1658/4/4 1659/4/4
f 1659/4/4 1658/4/4 1660/4/4
f 1661/4/4 1662/4/4 1663/4/4
f 1663/4/4 1662/4/4 1664/4/4
f 1669/2/5 1666/2/5 1665/2/5
f 1670/2/5 1666/2/5 1669/2/5
f 1671/2/5 1668/2/5 1667/2/5
f 1672/2/5 1668/2/5 1671/2/5
f 1677/2/5 1674/2/5 1673/2/5
f 1678/2/5 1674/2/5 1677/2/5
f 1679/2/5 1676/2/5 1675/2/5
f 1680/2/5 1676/2/5 1679/2/5
f 1685/2/5 1682/2/5 1681/2/5
f 1686/2/5 1682/2/5 1685/2/5
f 1687/2/5 1684/2/5 1683/2/5
f 1688/2/5 1684/2/5 1687/2/5
f 1693/2/5 1690/2/5 1689/2/5
f 1694/2/5 1690/2/5 1693/2/5
f 1695/2/5 1692/2/5 1691/2/5
f 1696/2/5 1692/2/5 1695/2/5
f 1705/2/5 1698/2/5 1697/2/5
f 1706/2/5 1702/2/5 1701/2/5
f 1707/2/5 1702/2/5 1706/2/5
f 1708/2/5 1704/2/5 1703/2/5
f 1709/2/5 1704/2/5 1708/2/5
f 1710/2/5 1700/2/5 1699/2/5
f 1711/2/5 1705/2/5 1697/2/5
f 1711/2/5 1706/2/5 1705/2/5
f 1712/2/5 1706/2/5 1711/2/5
f 1713/2/5 1710/2/5 1709/2/5
f 1714/2/5 1700/2/5 1710/2/5
f 1714/2/5 1710/2/5 1713/2/5
f 1715/2/5 1706/2/5 1712/2/5
f 1716/2/5 1706/2/5 1715/2/5
f 1717/2/5 1713/2/5 1709/2/5
f 1718/2/5 1713/2/5 1717/2/5
f 1723/2/5 1720/2/5 1719/2/5
f 1724/2/5 1720/2/5 1723/2/5
f 1725/2/5 1722/2/5 1721/2/5
f 1726/2/5 1722/2/5 1725/2/5
f 1733/4/5 1728/4/5 1727/4/5
f 1734/4/5 1728/4/5 1733/4/5
f 1735/4/5 1730/4/5 1729/4/5
f 1736/4/5 1730/4/5 1735/4/5
f 1737/4/5 1732/4/5 1731/4/5
f 1738/4/5 1732/4/5 1737/4/5
f 1743/4/5 1740/4/5 1739/4/5
f 1744/4/5 1740/4/5 1743/4/5
f 1745/4/5 1736/4/5 1735/4/5
f 1745/4/5 1735/4/5 1734/4/5
f 1745/4/5 1737/4/5 1736/4/5
f 1746/4/5 1737/4/5 1745/4/5
f 1747/4/5 1742/4/5 1741/4/5
f 1748/4/5 1742/4/5 1747/4/5
f 1753/2/5 1750/2/5 1749/2/5
f 1754/2/5 1750/2/5 1753/2/5
f 1755/2/5 1752/2/5 1751/2/5
f 1756/2/5 1752/2/5 1755/2/5
f 1759/4/5 1758/4/5 1757/4/5
f 1760/4/5 1758/4/5 1759/4/5
f 1763/4/5 1762/4/5 1761/4/5
f 1764/4/5 1762/4/5 1763/4/5
f 1770/1/5 1766/1/5 1765/1/5
f 1771/4/5 1767/4/5 1766/4/5
f 1771/1/5 1766/1/5 1770/1/5
f 1772/1/5 1768/1/5 1767/1/5
f 1772/4/5 1767/4/5 1771/4/5
f 1773/1/5 1768/1/5 1772/1/5
f 1775/4/5 1770/4/5 1769/4/5
f 1776/4/5 1770/4/5 1775/4/5
f 1777/4/5 1774/4/5 1773/4/5
f 1778/4/5 1774/4/5 1777/4/5
f 1783/4/5 1780/4/5 1779/4/5
f 1784/4/5 1780/4/5 1783/4/5
f 1785/4/5 1782/4/5 1781/4/5
f 1786/4/5 1782/4/5 1785/4/5
f 1789/4/5 1785/4/5 1784/4/5
f 1790/4/5 1785/4/5 1789/4/5
f 1793/4/5 1788/4/5 1787/4/5
f 1794/4/5 1788/4/5 1793/4/5
f 1795/4/5 1792/4/5 1791/4/5
f 1796/4/5 1792/4/5 1795/4/5
f 1801/4/5 1798/4/5 1797/4/5
f 1802/4/5 1798/4/5 1801/4/5
f 1803/4/5 1800/4/5 1799/4/5
f 1804/4/5 1800/4/5 1803/4/5
f 1813/4/5 1806/4/5 1805/4/5
f 1814/4/5 1806/4/5 1813/4/5
f 1815/4/5 1806/4/5 1814/4/5
f 1816/4/5 1808/4/5 1807/4/5
f 1817/4/5 1808/4/5 1816/4/5
f 1818/4/5 1810/4/5 1809/4/5
f 1819/4/5 1810/4/5 1818/4/5
f 1820/4/5 1812/4/5 1811/4/5
f 1821/4/5 1812/4/5 1820/4/5
f 1822/4/5 1812/4/5 1821/4/5
f 1832/4/5 1828/4/5 1827/4/5
f 1833/4/5 1828/4/5 1832/4/5
f 1834/4/5 1824/4/5 1823/4/5
f 1835/4/5 1824/4/5 1834/4/5
f 1836/4/5 1826/4/5 1825/4/5
f 1837/4/5 1826/4/5 1836/4/5
f 1838/4/5 1830/4/5 1829/4/5
f 1839/4/5 1830/4/5 1838/4/5
f 1841/4/5 1832/4/5 1831/4/5
f 1842/4/5 1832/4/5 1841/4/5
f 1843/4/5 1840/4/5 1839/4/5
f 1844/4/5 1840/4/5 1843/4/5
f 1857/4/5 1846/4/5 1845/4/5
f 1858/1/5 1847/1/5 1846/1/5
f 1858/4/5 1846/4/5 1857/4/5
f 1859/4/5 1848/4/5 1847/4/5
f 1859/1/5 1847/1/5 1858/1/5
f 1860/4/5 1848/4/5 1859/4/5
f 1861/4/5 1850/4/5 1849/4/5
f 1862/4/5 1850/4/5 1861/4/5
f 1863/4/5 1852/4/5 1851/4/5
f 1864/4/5 1852/4/5 1863/4/5
f 1865/4/5 1854/4/5 1853/4/5
f 1866/1/5 1855/1/5 1854/1/5
f 1866/4/5 1854/4/5 1865/4/5
f 1867/4/5 1856/4/5 1855/4/5
f 1867/1/5 1855/1/5 1866/1/5
f 1868/4/5 1856/4/5 1867/4/5
f 1873/6/5 1870/6/5 1869/6/5
f 1874/6/5 1870/6/5 1873/6/5
f 1875/6/5 1872/6/5 1871/6/5
f 1876/6/5 1872/6/5 1875/6/5
f 1885/4/5 1880/4/5 1879/4/5
f 1886/4/5 1880/4/5 1885/4/5
f 1887/4/5 1882/4/5 1881/4/5
f 1888/4/5 1882/4/5 1887/4/5
f 1889/4/5 1878/4/5 1877/4/5
f 1890/4/5 1878/4/5 1889/4/5
f 1895/4/5 1884/4/5 1883/4/5
f 1896/4/5 1884/4/5 1895/4/5
f 1897/4/5 1892/4/5 1891/4/5
f 1898/4/5 1892/4/5 1897/4/5
f 1907/4/5 1894/4/5 1893/4/5
f 1908/4/5 1894/4/5 1907/4/5
f 1909/4/5 1900/4/5 1899/4/5
f 1910/4/5 1900/4/5 1909/4/5
f 1911/4/5 1902/4/5 1901/4/5
f 1912/4/5 1902/4/5 1911/4/5
f 1913/4/5 1904/4/5 1903/4/5
f 1914/4/5 1904/4/5 1913/4/5
f 1915/4/5 1906/4/5 1905/4/5
f 1916/4/5 1906/4/5 1915/4/5
f 1921/3/5 1918/3/5 1917/3/5
f 1921/3/5 1920/3/5 1919/3/5
f 1921/3/5 1919/3/5 1918/3/5
f 1922/3/5 1920/3/5 1921/3/5
f 1923/3/5 1922/3/5 1921/3/5
f 1924/3/5 1922/3/5 1923/3/5
f 1937/4/5 1926/4/5 1925/4/5
f 1938/1/5 1927/1/5 1926/1/5
f 1938/4/5 1926/4/5 1937/4/5
f 1939/4/5 1928/4/5 1927/4/5
f 1939/1/5 1927/1/5 1938/1/5
f 1940/1/5 1929/1/5 1928/1/5
f 1940/4/5 1928/4/5 1939/4/5
f 1941/4/5 1930/4/5 1929/4/5
f 1941/1/5 1929/1/5 1940/1/5
f 1942/4/5 1930/4/5 1941/4/5
f 1943/4/5 1932/4/5 1931/4/5
f 1944/1/5 1933/1/5 1932/1/5
f 1944/4/5 1932/4/5 1943/4/5
f 1945/4/5 1934/4/5 1933/4/5
f 1945/1/5 1933/1/5 1944/1/5
f 1946/1/5 1935/1/5 1934/1/5
f 1946/4/5 1934/4/5 1945/4/5
f 1947/4/5 1936/4/5 1935/4/5
f 1947/1/5 1935/1/5 1946/1/5
f 1948/4/5 1936/4/5 1947/4/5
f 1949/4/5 1940/4/5 1939/4/5
f 1949/4/5 1939/4/5 1938/4/5
f 1950/4/5 1940/4/5 1949/4/5
f 1951/4/5 1947/4/5 1946/4/5
f 1951/4/5 1946/4/5 1945/4/5
f 1952/4/5 1947/4/5 1951/4/5
f 1957/1/5 1954/1/5 1953/1/5
f 1958/1/5 1954/1/5 1957/1/5
f 1961/3/5 1956/3/5 1955/3/5
f 1962/3/5 1956/3/5 1961/3/5
f 1963/3/5 1960/3/5 1959/3/5
f 1964/3/5 1960/3/5 1963/3/5
f 1977/1/5 1966/1/5 1965/1/5
f 1978/4/5 1967/4/5 1966/4/5
f 1978/1/5 1966/1/5 1977/1/5
f 1979/1/5 1968/1/5 1967/1/5
f 1979/4/5 1967/4/5 1978/4/5
f 1980/4/5 1969/4/5 1968/4/5
f 1980/1/5 1968/1/5 1979/1/5
f 1981/1/5 1970/1/5 1969/1/5
f 1981/4/5 1969/4/5 1980/4/5
f 1982/1/5 1970/1/5 1981/1/5
f 1983/1/5 1972/1/5 1971/1/5
f 1984/4/5 1973/4/5 1972/4/5
f 1984/1/5 1972/1/5 1983/1/5
f 1985/1/5 1974/1/5 1973/1/5
f 1985/4/5 1973/4/5 1984/4/5
f 1986/4/5 1975/4/5 1974/4/5
f 1986/1/5 1974/1/5 1985/1/5
f 1987/1/5 1976/1/5 1975/1/5
f 1987/4/5 1975/4/5 1986/4/5
f 1988/1/5 1976/1/5 1987/1/5
f 1999/4/5 1990/4/5 1989/4/5
f 2000/1/5 1991/1/5 1990/1/5
f 2000/4/5 1990/4/5 1999/4/5
f 2001/4/5 1992/4/5 1991/4/5
f 2001/1/5 1991/1/5 2000/1/5
f 2002/1/5 1993/1/5 1992/1/5
f 2002/4/5 1992/4/5 2001/4/5
f 2003/1/5 1993/1/5 2002/1/5
f 2004/1/5 1995/1/5 1994/1/5
f 2005/4/5 1996/4/5 1995/4/5
f 2005/1/5 1995/1/5 2004/1/5
f 2006/1/5 1997/1/5 1996/1/5
f 2006/4/5 1996/4/5 2005/4/5
f 2007/4/5 1998/4/5 1997/4/5
f 2007/1/5 1997/1/5 2006/1/5
f 2008/4/5 1998/4/5 2007/4/5
f 2013/4/5 2010/4/5 2009/4/5
f 2014/4/5 2010/4/5 2013/4/5
f 2027/4/5 2012/4/5 2011/4/5
f 2028/4/5 2012/4/5 2027/4/5
f 2029/4/5 2016/4/5 2015/4/5
f 2030/1/5 2017/1/5 2016/1/5
f 2030/4/5 2016/4/5 2029/4/5
f 2031/4/5 2018/4/5 2017/4/5
f 2031/1/5 2017/1/5 2030/1/5
f 2032/1/5 2019/1/5 2018/1/5
f 2032/4/5 2018/4/5 2031/4/5
f 2033/4/5 2020/4/5 2019/4/5
f 2033/1/5 2019/1/5 2032/1/5
f 2034/4/5 2020/4/5 2033/4/5
f 2035/4/5 2022/4/5 2021/4/5
f 2036/1/5 2023/1/5 2022/1/5
f 2036/4/5 2022/4/5 2035/4/5
f 2037/4/5 2024/4/5 2023/4/5
f 2037/1/5 2023/1/5 2036/1/5
f 2038/1/5 2025/1/5 2024/1/5
f 2038/4/5 2024/4/5 2037/4/5
f 2039/4/5 2026/4/5 2025/4/5
f 2039/1/5 2025/1/5 2038/1/5
f 2040/4/5 2026/4/5 2039/4/5
f 2055/1/5 2042/1/5 2041/1/5
f 2056/4/5 2043/4/5 2042/4/5
f 2056/1/5 2042/1/5 2055/1/5
f 2057/1/5 2044/1/5 2043/1/5
f 2057/4/5 2043/4/5 2056/4/5
f 2058/4/5 2045/4/5 2044/4/5
f 2058/1/5 2044/1/5 2057/1/5
f 2059/1/5 2046/1/5 2045/1/5
f 2059/4/5 2045/4/5 2058/4/5
f 2060/4/5 2047/4/5 2046/4/5
f 2060/1/5 2046/1/5 2059/1/5
f 2061/4/5 2047/4/5 2060/4/5
f 2062/4/5 2047/4/5 2061/4/5
f 2063/4/5 2049/4/5 2048/4/5
f 2064/4/5 2049/4/5 2063/4/5
f 2065/1/5 2050/1/5 2049/1/5
f 2065/4/5 2049/4/5 2064/4/5
f 2066/4/5 2051/4/5 2050/4/5
f 2066/1/5 2050/1/5 2065/1/5
f 2067/1/5 2052/1/5 2051/1/5
f 2067/4/5 2051/4/5 2066/4/5
f 2068/4/5 2053/4/5 2052/4/5
f 2068/1/5 2052/1/5 2067/1/5
f 2069/1/5 2054/1/5 2053/1/5
f 2069/4/5 2053/4/5 2068/4/5
f 2070/1/5 2054/1/5 2069/1/5
f 2075/4/5 2072/4/5 2071/4/5
f 2076/4/5 2072/4/5 2075/4/5
f 2077/4/5 2072/4/5 2076/4/5
f 2078/4/5 2072/4/5 2077/4/5
f 2079/4/5 2072/4/5 2078/4/5
f 2080/4/5 2072/4/5 2079/4/5
f 2081/4/5 2074/4/5 2073/4/5
f 2082/4/5 2074/4/5 2081/4/5
f 2083/4/5 2074/4/5 2082/4/5
f 2084/4/5 2074/4/5 2083/4/5
f 2085/4/5 2074/4/5 2084/4/5
f 2086/4/5 2074/4/5 2085/4/5
f 2091/3/5 2088/3/5 2087/3/5
f 2092/3/5 2088/3/5 2091/3/5
f 2095/3/5 2090/3/5 2089/3/5
f 2096/3/5 2090/3/5 2095/3/5
f 2097/3/5 2093/3/5 2092/3/5
f 2098/3/5 2093/3/5 2097/3/5
f 2099/3/5 2095/3/5 2094/3/5
f 2100/3/5 2095/3/5 2099/3/5
f 2105/3/5 2102/3/5 2101/3/5
f 2106/3/5 2102/3/5 2105/3/5
f 2109/3/5 2104/3/5 2103/3/5
f 2110/3/5 2104/3/5 2109/3/5
f 2111/3/5 2107/3/5 2106/3/5
f 2112/3/5 2107/3/5 2111/3/5
f 2113/3/5 2109/3/5 2108/3/5
f 2114/3/5 2109/3/5 2113/3/5
f 2123/2/5 2116/2/5 2115/2/5
f 2124/2/5 2116/2/5 2123/2/5
f 2125/2/5 2118/2/5 2117/2/5
f 2126/2/5 2118/2/5 2125/2/5
f 2131/2/5 2120/2/5 2119/2/5
f 2132/2/5 2120/2/5 2131/2/5
f 2133/2/5 2122/2/5 2121/2/5
f 2134/2/5 2122/2/5 2133/2/5
f 2135/3/5 2128/3/5 2127/3/5
f 2136/3/5 2128/3/5 2135/3/5
f 2137/3/5 2130/3/5 2129/3/5
f 2138/3/5 2130/3/5 2137/3/5
f 2143/3/5 2140/3/5 2139/3/5
f 2144/3/5 2142/3/5 2141/3/5
f 2145/3/5 2140/3/5 2143/3/5
f 2146/3/5 2140/3/5 2145/3/5
f 2147/3/5 2144/3/5 2141/3/5
f 2148/3/5 2144/3/5 2147/3/5
f 2149/2/6 2150/2/6 2153/2/6
f 2153/2/6 2150/2/6 2154/2/6
f 2151/2/6 2152/2/6 2155/2/6
f 2155/2/6 2152/2/6 2156/2/6
f 2157/2/6 2158/2/6 2161/2/6
f 2161/2/6 2158/2/6 2162/2/6
f 2159/2/6 2160/2/6 2163/2/6
f 2163/2/6 2160/2/6 2164/2/6
f 2165/2/6 2166/2/6 2169/2/6
f 2169/2/6 2166/2/6 2170/2/6
f 2167/2/6 2168/2/6 2171/2/6
f 2171/2/6 2168/2/6 2172/2/6
f 2173/2/6 2174/2/6 2177/2/6
f 2177/2/6 2174/2/6 2178/2/6
f 2175/2/6 2176/2/6 2179/2/6
f 2179/2/6 2176/2/6 2180/2/6
f 2181/2/6 2182/2/6 2185/2/6
f 2185/2/6 2182/2/6 2186/2/6
f 2183/2/6 2184/2/6 2187/2/6
f 2187/2/6 2184/2/6 2188/2/6
f 2189/2/6 2190/2/6 2193/2/6
f 2193/2/6 2190/2/6 2194/2/6
f 2191/2/6 2192/2/6 2195/2/6
f 2195/2/6 2192/2/6 2196/2/6
f 2197/2/6 2198/2/6 2201/2/6
f 2201/2/6 2198/2/6 2202/2/6
f 2199/2/6 2200/2/6 2203/2/6
f 2203/2/6 2200/2/6 2204/2/6
f 2205/4/6 2206/4/6 2210/4/6
f 2207/4/6 2208/4/6 2211/4/6
f 2209/2/6 2210/2/6 2213/2/6
f 2210/4/6 2206/4/6 2214/4/6
f 2213/2/6 2210/2/6 2214/2/6
f 2211/2/6 2212/2/6 2215/2/6
f 2207/4/6 2211/4/6 2215/4/6
f 2215/2/6 2212/2/6 2216/2/6
f 2214/4/6 2206/4/6 2217/4/6
f 2217/4/6 2206/4/6 2218/4/6
f 2207/4/6 2215/4/6 2219/4/6
f 2219/4/6 2215/4/6 2220/4/6
f 2221/4/6 2222/4/6 2225/4/6
f 2225/4/6 2222/4/6 2226/4/6
f 2223/4/6 2224/4/6 2227/4/6
f 2227/4/6 2224/4/6 2228/4/6
f 2229/1/6 2230/1/6 2233/1/6
f 2230/4/6 2231/4/6 2234/4/6
f 2233/1/6 2230/1/6 2234/1/6
f 2231/1/6 2232/1/6 2235/1/6
f 2234/4/6 2231/4/6 2235/4/6
f 2235/1/6 2232/1/6 2236/1/6
f 2237/4/6 2238/4/6 2245/4/6
f 2245/4/6 2238/4/6 2246/4/6
f 2239/4/6 2240/4/6 2247/4/6
f 2247/4/6 2240/4/6 2248/4/6
f 2241/4/6 2242/4/6 2249/4/6
f 2249/4/6 2242/4/6 2250/4/6
f 2243/4/6 2244/4/6 2251/4/6
f 2251/4/6 2244/4/6 2252/4/6
f 2253/4/6 2254/4/6 2257/4/6
f 2257/4/6 2254/4/6 2258/4/6
f 2255/4/6 2256/4/6 2259/4/6
f 2259/4/6 2256/4/6 2260/4/6
f 2258/4/6 2259/4/6 2261/4/6
f 2261/4/6 2259/4/6 2262/4/6
f 2263/4/6 2264/4/6 2270/4/6
f 2270/4/6 2264/4/6 2271/4/6
f 2265/4/6 2266/4/6 2272/4/6
f 2272/4/6 2266/4/6 2273/4/6
f 2267/4/6 2268/4/6 2277/4/6
f 2277/4/6 2268/4/6 2278/4/6
f 2269/4/6 2270/4/6 2279/4/6
f 2279/4/6 2270/4/6 2280/4/6
f 2273/4/6 2274/4/6 2281/4/6
f 2281/4/6 2274/4/6 2282/4/6
f 2275/4/6 2276/4/6 2283/4/6
f 2283/4/6 2276/4/6 2284/4/6
f 2285/4/6 2286/4/6 2289/4/6
f 2289/4/6 2286/4/6 2290/4/6
f 2287/4/6 2288/4/6 2291/4/6
f 2291/4/6 2288/4/6 2292/4/6
f 2293/4/6 2294/4/6 2297/4/6
f 2297/4/6 2294/4/6 2298/4/6
f 2295/4/6 2296/4/6 2299/4/6
f 2299/4/6 2296/4/6 2300/4/6
f 2301/4/6 2302/4/6 2305/4/6
f 2305/4/6 2302/4/6 2306/4/6
f 2303/4/6 2304/4/6 2309/4/6
f 2309/4/6 2304/4/6 2310/4/6
f 2306/4/6 2307/4/6 2311/4/6
f 2305/4/6 2306/4/6 2311/4/6
f 2309/4/6 2310/4/6 2312/4/6
f 2308/4/6 2309/4/6 2312/4/6
f 2311/4/6 2307/4/6 2318/4/6
f 2318/4/6 2307/4/6 2319/4/6
f 2308/4/6 2312/4/6 2320/4/6
f 2320/4/6 2312/4/6 2321/4/6
f 2313/4/6 2314/4/6 2327/4/6
f 2327/4/6 2314/4/6 2328/4/6
f 2315/4/6 2316/4/6 2329/4/6
f 2329/4/6 2316/4/6 2330/4/6
f 2317/4/6 2318/4/6 2331/4/6
f 2331/4/6 2318/4/6 2332/4/6
f 2321/4/6 2322/4/6 2333/4/6
f 2333/4/6 2322/4/6 2334/4/6
f 2323/4/6 2324/4/6 2335/4/6
f 2335/4/6 2324/4/6 2336/4/6
f 2325/4/6 2326/4/6 2337/4/6
f 2337/4/6 2326/4/6 2338/4/6
f 2339/6/6 2340/6/6 2343/6/6
f 2343/6/6 2340/6/6 2344/6/6
f 2341/6/6 2342/6/6 2345/6/6
f 2345/6/6 2342/6/6 2346/6/6
f 2347/1/6 2348/1/6 2354/1/6
f 2354/1/6 2348/1/6 2355/1/6
f 2349/1/6 2350/1/6 2356/1/6
f 2356/1/6 2350/1/6 2357/1/6
f 2351/4/6 2352/4/6 2361/4/6
f 2361/4/6 2352/4/6 2362/4/6
f 2354/4/6 2355/4/6 2363/4/6
f 2353/4/6 2354/4/6 2363/4/6
f 2363/4/6 2355/4/6 2364/4/6
f 2356/4/6 2357/4/6 2367/4/6
f 2357/4/6 2358/4/6 2367/4/6
f 2367/4/6 2358/4/6 2368/4/6
f 2359/4/6 2360/4/6 2369/4/6
f 2369/4/6 2360/4/6 2370/4/6
f 2365/4/6 2366/4/6 2371/4/6
f 2371/4/6 2366/4/6 2372/4/6
f 2373/1/6 2374/1/6 2375/1/6
f 2375/1/6 2374/1/6 2376/1/6
f 2377/4/6 2378/4/6 2385/4/6
f 2385/4/6 2378/4/6 2386/4/6
f 2379/4/6 2380/4/6 2388/4/6
f 2388/4/6 2380/4/6 2389/4/6
f 2381/4/6 2382/4/6 2392/4/6
f 2392/4/6 2382/4/6 2393/4/6
f 2383/4/6 2384/4/6 2395/4/6
f 2395/4/6 2384/4/6 2396/4/6
f 2387/4/6 2388/4/6 2397/4/6
f 2397/4/6 2388/4/6 2398/4/6
f 2390/4/6 2391/4/6 2399/4/6
f 2399/4/6 2391/4/6 2400/4/6
f 2393/4/6 2394/4/6 2401/4/6
f 2401/4/6 2394/4/6 2402/4/6
f 2403/3/6 2404/3/6 2405/3/6
f 2405/3/6 2404/3/6 2406/3/6
f 2405/3/6 2406/3/6 2409/3/6
f 2409/3/6 2406/3/6 2410/3/6
f 2407/4/6 2408/4/6 2417/4/6
f 2417/4/6 2408/4/6 2418/4/6
f 2413/4/6 2414/4/6 2420/4/6
f 2420/4/6 2414/4/6 2421/4/6
f 2415/4/6 2416/4/6 2422/4/6
f 2422/4/6 2416/4/6 2423/4/6
f 2411/4/6 2412/4/6 2425/4/6
f 2425/4/6 2412/4/6 2426/4/6
f 2419/4/6 2420/4/6 2427/4/6
f 2427/4/6 2420/4/6 2428/4/6
f 2423/4/6 2424/4/6 2429/4/6
f 2429/4/6 2424/4/6 2430/4/6
f 2431/3/6 2432/3/6 2437/3/6
f 2432/5/6 2433/5/6 2437/5/6
f 2437/5/6 2433/5/6 2438/5/6
f 2434/5/6 2435/5/6 2439/5/6
f 2435/3/6 2436/3/6 2440/3/6
f 2439/5/6 2435/5/6 2440/5/6
f 2431/3/6 2437/3/6 2443/3/6
f 2440/3/6 2436/3/6 2444/3/6
f 2441/4/6 2442/4/6 2449/4/6
f 2431/3/6 2443/3/6 2450/3/6
f 2444/3/6 2436/3/6 2451/3/6
f 2445/4/6 2446/4/6 2452/4/6
f 2448/4/6 2449/4/6 2455/4/6
f 2447/4/6 2448/4/6 2455/4/6
f 2449/4/6 2442/4/6 2456/4/6
f 2455/4/6 2449/4/6 2456/4/6
f 2450/3/6 2443/3/6 2457/3/6
f 2457/3/6 2443/3/6 2458/3/6
f 2444/3/6 2451/3/6 2459/3/6
f 2459/3/6 2451/3/6 2460/3/6
f 2453/4/6 2454/4/6 2461/4/6
f 2452/4/6 2453/4/6 2461/4/6
f 2445/4/6 2452/4/6 2461/4/6
f 2461/4/6 2454/4/6 2462/4/6
f 2463/4/6 2464/4/6 2471/4/6
f 2471/4/6 2464/4/6 2472/4/6
f 2465/3/6 2466/3/6 2473/3/6
f 2473/3/6 2466/3/6 2474/3/6
f 2467/3/6 2468/3/6 2475/3/6
f 2475/3/6 2468/3/6 2476/3/6
f 2469/4/6 2470/4/6 2477/4/6
f 2477/4/6 2470/4/6 2478/4/6
f 2472/4/6 2464/4/6 2479/4/6
f 2479/4/6 2464/4/6 2480/4/6
f 2469/4/6 2477/4/6 2485/4/6
f 2485/4/6 2477/4/6 2486/4/6
f 2481/3/6 2482/3/6 2487/3/6
f 2487/3/6 2482/3/6 2488/3/6
f 2483/3/6 2484/3/6 2489/3/6
f 2489/3/6 2484/3/6 2490/3/6
f 2474/3/6 2475/3/6 2491/3/6
f 2491/3/6 2475/3/6 2492/3/6
f 2493/2/6 2494/2/6 2501/2/6
f 2501/2/6 2494/2/6 2502/2/6
f 2499/2/6 2500/2/6 2503/2/6
f 2503/2/6 2500/2/6 2504/2/6
f 2495/3/6 2496/3/6 2505/3/6
f 2505/3/6 2496/3/6 2506/3/6
f 2497/3/6 2498/3/6 2507/3/6
f 2507/3/6 2498/3/6 2508/3/6
f 2509/2/6 2510/2/6 2521/2/6
f 2521/2/6 2510/2/6 2522/2/6
f 2511/2/6 2512/2/6 2523/2/6
f 2523/2/6 2512/2/6 2524/2/6
f 2513/2/6 2514/2/6 2525/2/6
f 2525/2/6 2514/2/6 2526/2/6
f 2515/2/6 2516/2/6 2527/2/6
f 2527/2/6 2516/2/6 2528/2/6
f 2517/3/6 2518/3/6 2530/3/6
f 2519/3/6 2520/3/6 2531/3/6
f 2529/3/6 2530/3/6 2533/3/6
f 2530/3/6 2518/3/6 2534/3/6
f 2533/3/6 2530/3/6 2534/3/6
f 2531/3/6 2532/3/6 2535/3/6
f 2519/3/6 2531/3/6 2535/3/6
f 2535/3/6 2532/3/6 2536/3/6
f 2537/3/6 2538/3/6 2542/3/6
f 2539/3/6 2540/3/6 2543/3/6
f 2541/3/6 2542/3/6 2545/3/6
f 2542/3/6 2538/3/6 2546/3/6
f 2545/3/6 2542/3/6 2546/3/6
f 2543/3/6 2544/3/6 2547/3/6
f 2539/3/6 2543/3/6 2547/3/6
f 2547/3/6 2544/3/6 2548/3/6
