%YAML 1.1
%TAG !u! tag:unity3d.com,2011:
--- !u!114 &11400000
MonoBehaviour:
  m_ObjectHideFlags: 0
  m_PrefabParentObject: {fileID: 0}
  m_PrefabInternal: {fileID: 0}
  m_GameObject: {fileID: 0}
  m_Enabled: 1
  m_EditorHideFlags: 0
  m_Script: {fileID: 11500000, guid: f62987b0cc65c774bb357247a22a4f22, type: 3}
  m_Name: MiniBossBuilding
  m_EditorClassIdentifier: 
  _maxHealth: 250
  _radius: 25
  _gold: 30
  _diamond: 5
